RTL/pdf.vcd
$version Generated by VerilatedVcd $end
$date Thu Dec 14 16:21:11 2023 $end
$timescale 1ps $end

 $scope module TOP $end
  $var wire 32 ,! a0_o [31:0] $end
  $var wire  1 )! clk_i $end
  $var wire  1 *! rst_i $end
  $var wire  1 +! trigger_i $end
  $scope module cpu $end
   $var wire 32 /! DATA_WIDTH [31:0] $end
   $var wire  1 N JALR_instr $end
   $var wire  1 -! JB_instr $end
   $var wire 32 ,! a0_o [31:0] $end
   $var wire  4 Z alu_control [3:0] $end
   $var wire 32 i alu_out [31:0] $end
   $var wire  1 P alu_src $end
   $var wire  1 R byte_address $end
   $var wire  1 S cach_enable $end
   $var wire  1 )! clk_i $end
   $var wire 32 W imm_ext [31:0] $end
   $var wire  3 Y imm_src [2:0] $end
   $var wire 32 T instr [31:0] $end
   $var wire  1 O mem_write $end
   $var wire 32 V pc_plus_4 [31:0] $end
   $var wire 32 U pc_var [31:0] $end
   $var wire  1 Q reg_write $end
   $var wire  2 X result_src [1:0] $end
   $var wire  1 *! rst_i $end
   $var wire  1 +! trigger_i $end
   $var wire  1 h zero $end
   $scope module controlUnit_top $end
    $var wire  1 N JALR_instr_o $end
    $var wire  1 -! JB_instr_o $end
    $var wire  4 Z alu_control_o [3:0] $end
    $var wire  2 ^ alu_op [1:0] $end
    $var wire  1 P alu_src_o $end
    $var wire  1 _ branch $end
    $var wire  1 R byte_address_o $end
    $var wire  1 S cache_enable_o $end
    $var wire  3 \ funct3_i [2:0] $end
    $var wire  1 ] funct7_5_i $end
    $var wire  3 Y imm_src_o [2:0] $end
    $var wire  1 ` jmp $end
    $var wire  1 O mem_write_o $end
    $var wire  7 [ op_i [6:0] $end
    $var wire  1 Q reg_write_o $end
    $var wire  2 X result_src_o [1:0] $end
    $var wire  1 h zero_i $end
    $scope module aluDecoder $end
     $var wire  4 Z alu_control_o [3:0] $end
     $var wire  2 ^ alu_op_i [1:0] $end
     $var wire  1 R byte_address_o $end
     $var wire  3 \ funct3_i [2:0] $end
     $var wire  1 ] funct7_b5_i $end
     $var wire  1 a op_5_i $end
     $var wire  1 b rTypeSub $end
    $upscope $end
    $scope module mainDecoder $end
     $var wire  1 N JALR_o $end
     $var wire  2 ^ alu_op_o [1:0] $end
     $var wire  1 P alu_src_o $end
     $var wire  1 _ branch_o $end
     $var wire  1 S cache_enable_o $end
     $var wire  3 Y imm_src_o [2:0] $end
     $var wire  1 ` jump_o $end
     $var wire  1 O mem_write_o $end
     $var wire  7 [ op_i [6:0] $end
     $var wire  1 Q reg_write_o $end
     $var wire  2 X result_src_o [1:0] $end
    $upscope $end
   $upscope $end
   $scope module datapath $end
    $var wire 32 /! DATA_WIDTH [31:0] $end
    $var wire 32 0! REG_ADDR_LENGTH [31:0] $end
    $var wire 32 ,! a0_o [31:0] $end
    $var wire  4 Z alu_control_i [3:0] $end
    $var wire 32 i alu_out_o [31:0] $end
    $var wire  1 P alu_src_i $end
    $var wire  1 S cache_enable_i $end
    $var wire  1 )! clk_i $end
    $var wire  1 R data_mem_byte_op_i $end
    $var wire 32 l data_mem_rd [31:0] $end
    $var wire  1 O data_mem_we_i $end
    $var wire  1 h eq_o $end
    $var wire 32 W imm_ext_i [31:0] $end
    $var wire 32 V pc_next_i [31:0] $end
    $var wire  5 c reg_addr1_i [4:0] $end
    $var wire  5 d reg_addr2_i [4:0] $end
    $var wire  5 e reg_addr3_i [4:0] $end
    $var wire 32 j reg_rd1 [31:0] $end
    $var wire 32 k reg_rd2 [31:0] $end
    $var wire 32 .! reg_wd [31:0] $end
    $var wire  1 Q reg_we_i $end
    $var wire  2 X result_src_i [1:0] $end
    $var wire  1 +! trigger_i $end
    $scope module cached_datamemory $end
     $var wire 32 i address_i [31:0] $end
     $var wire  1 R byte_op_i $end
     $var wire  1 S cache_enable_i $end
     $var wire  1 )! clk_i $end
     $var wire 32 i mem_address [31:0] $end
     $var wire  1 ( mem_byte_op $end
     $var wire 32 m mem_incoming_data [31:0] $end
     $var wire 32 ' mem_write_data [31:0] $end
     $var wire  1 O mem_write_enable $end
     $var wire 32 l read_data_o [31:0] $end
     $var wire 32 k write_data_i [31:0] $end
     $var wire  1 O write_enable_i $end
     $scope module line $end
      $var wire 32 3! BYTE_WIDTH [31:0] $end
      $var wire  2 n LRU_pointer[0] [1:0] $end
      $var wire  2 x LRU_pointer[10] [1:0] $end
      $var wire  2 y LRU_pointer[11] [1:0] $end
      $var wire  2 z LRU_pointer[12] [1:0] $end
      $var wire  2 { LRU_pointer[13] [1:0] $end
      $var wire  2 | LRU_pointer[14] [1:0] $end
      $var wire  2 } LRU_pointer[15] [1:0] $end
      $var wire  2 o LRU_pointer[1] [1:0] $end
      $var wire  2 p LRU_pointer[2] [1:0] $end
      $var wire  2 q LRU_pointer[3] [1:0] $end
      $var wire  2 r LRU_pointer[4] [1:0] $end
      $var wire  2 s LRU_pointer[5] [1:0] $end
      $var wire  2 t LRU_pointer[6] [1:0] $end
      $var wire  2 u LRU_pointer[7] [1:0] $end
      $var wire  2 v LRU_pointer[8] [1:0] $end
      $var wire  2 w LRU_pointer[9] [1:0] $end
      $var wire 32 i address_i [31:0] $end
      $var wire  1 R byte_op_i $end
      $var wire  2 !! byteoffset [1:0] $end
      $var wire  1 S cache_enable_i $end
      $var wire  1 )! clk_i $end
      $var wire  1 "! hit $end
      $var wire 32 i mem_address_o [31:0] $end
      $var wire  1 ( mem_byte_op_o $end
      $var wire 32 m mem_incoming_data_i [31:0] $end
      $var wire 32 ' mem_write_data_o [31:0] $end
      $var wire  1 O mem_write_enable_o $end
      $var wire 32 l read_data_o [31:0] $end
      $var wire  1 #! readmiss $end
      $var wire  4 $! set [3:0] $end
      $var wire 32 1! set_bits [31:0] $end
      $var wire 26 ~ tag [25:0] $end
      $var wire 32 2! tag_bits [31:0] $end
      $var wire  2 %! way_hit [1:0] $end
      $var wire 32 /! width [31:0] $end
      $var wire 32 k write_data_i [31:0] $end
      $var wire  1 O write_enable_i $end
      $scope module unnamedblk1 $end
       $var wire 32 # j [31:0] $end
       $scope module unnamedblk2 $end
        $var wire 32 $ i [31:0] $end
       $upscope $end
      $upscope $end
      $scope module unnamedblk3 $end
       $var wire 32 4! i [31:0] $end
      $upscope $end
      $scope module unnamedblk4 $end
       $var wire 32 &! i [31:0] $end
      $upscope $end
      $scope module unnamedblk5 $end
       $var wire 32 ) i [31:0] $end
      $upscope $end
      $scope module unnamedblk6 $end
       $var wire 32 * i [31:0] $end
      $upscope $end
      $scope module unnamedblk7 $end
       $var wire 32 + i [31:0] $end
       $scope module unnamedblk8 $end
        $var wire 32 , j [31:0] $end
       $upscope $end
      $upscope $end
      $scope module unnamedblk9 $end
       $var wire 32 - i [31:0] $end
      $upscope $end
     $upscope $end
     $scope module memory $end
      $var wire 32 3! BYTE_WIDTH [31:0] $end
      $var wire 32 /! DATA_WIDTH [31:0] $end
      $var wire 32 6! END_ADDRESS [31:0] $end
      $var wire 32 5! START_ADDRESS [31:0] $end
      $var wire 32 '! addr [31:0] $end
      $var wire 32 i addr_i [31:0] $end
      $var wire  1 ( byte_op_i $end
      $var wire  1 )! clk_i $end
      $var wire 32 m rd_o [31:0] $end
      $var wire 32 ' wd_i [31:0] $end
      $var wire  1 O we_i $end
      $scope module unnamedblk1 $end
       $var wire 32 % i [31:0] $end
      $upscope $end
     $upscope $end
    $upscope $end
    $scope module datapath_alu $end
     $var wire 32 /! DATA_WIDTH [31:0] $end
     $var wire  4 Z alu_control_i [3:0] $end
     $var wire 32 i alu_result_o [31:0] $end
     $var wire  1 h eq_o $end
     $var wire 32 j src1_i [31:0] $end
     $var wire 32 (! src2_i [31:0] $end
    $upscope $end
    $scope module datapath_register_file $end
     $var wire 32 0! ADDRESS_WIDTH [31:0] $end
     $var wire 32 /! DATA_WIDTH [31:0] $end
     $var wire 32 ,! a0_o [31:0] $end
     $var wire  5 c addr1_i [4:0] $end
     $var wire  5 d addr2_i [4:0] $end
     $var wire  5 e addr3_i [4:0] $end
     $var wire 32 .! addr3_wd_i [31:0] $end
     $var wire  1 Q addr3_we_i $end
     $var wire  1 )! clk_i $end
     $var wire 32 j rd1_o [31:0] $end
     $var wire 32 k rd2_o [31:0] $end
     $var wire 32 . rf[0] [31:0] $end
     $var wire 32 8 rf[10] [31:0] $end
     $var wire 32 9 rf[11] [31:0] $end
     $var wire 32 : rf[12] [31:0] $end
     $var wire 32 ; rf[13] [31:0] $end
     $var wire 32 < rf[14] [31:0] $end
     $var wire 32 = rf[15] [31:0] $end
     $var wire 32 > rf[16] [31:0] $end
     $var wire 32 ? rf[17] [31:0] $end
     $var wire 32 @ rf[18] [31:0] $end
     $var wire 32 A rf[19] [31:0] $end
     $var wire 32 / rf[1] [31:0] $end
     $var wire 32 B rf[20] [31:0] $end
     $var wire 32 C rf[21] [31:0] $end
     $var wire 32 D rf[22] [31:0] $end
     $var wire 32 E rf[23] [31:0] $end
     $var wire 32 F rf[24] [31:0] $end
     $var wire 32 G rf[25] [31:0] $end
     $var wire 32 H rf[26] [31:0] $end
     $var wire 32 I rf[27] [31:0] $end
     $var wire 32 J rf[28] [31:0] $end
     $var wire 32 K rf[29] [31:0] $end
     $var wire 32 0 rf[2] [31:0] $end
     $var wire 32 L rf[30] [31:0] $end
     $var wire 32 M rf[31] [31:0] $end
     $var wire 32 1 rf[3] [31:0] $end
     $var wire 32 2 rf[4] [31:0] $end
     $var wire 32 3 rf[5] [31:0] $end
     $var wire 32 4 rf[6] [31:0] $end
     $var wire 32 5 rf[7] [31:0] $end
     $var wire 32 6 rf[8] [31:0] $end
     $var wire 32 7 rf[9] [31:0] $end
     $var wire  1 +! trigger_i $end
     $scope module unnamedblk1 $end
      $var wire 32 & i [31:0] $end
     $upscope $end
    $upscope $end
   $upscope $end
   $scope module extend_unit $end
    $var wire 32 /! DATA_WIDTH [31:0] $end
    $var wire 32 W imm_ext_o [31:0] $end
    $var wire  3 Y imm_src_i [2:0] $end
    $var wire 25 f instr_i [31:7] $end
   $upscope $end
   $scope module instruction_memory $end
    $var wire 32 3! BYTE_SIZE [31:0] $end
    $var wire 32 /! DATA_WIDTH [31:0] $end
    $var wire 32 7! FIRST_INSTR_ADDR [31:0] $end
    $var wire 32 8! LAST_INSTR_ADDR [31:0] $end
    $var wire 32 g addr [31:0] $end
    $var wire 32 U addr_i [31:0] $end
    $var wire 32 T instr_o [31:0] $end
   $upscope $end
   $scope module program_counter $end
    $var wire 32 /! PC_WIDTH [31:0] $end
    $var wire  1 )! clk_i $end
    $var wire 32 W imm_ext_i [31:0] $end
    $var wire  1 N jalr_instr_i $end
    $var wire 32 i jta_jalr_i [31:0] $end
    $var wire  1 -! jump_taken_i $end
    $var wire 32 U pc_next [31:0] $end
    $var wire 32 U pc_o [31:0] $end
    $var wire 32 V pc_plus4_o [31:0] $end
    $var wire  1 *! rst_i $end
   $upscope $end
  $upscope $end
 $upscope $end
$enddefinitions $end


#0
b00000000000000000000000000000000 #
b00000000000000000000000000000000 $
b00000000000000000000000000000000 %
b00000000000000000000000000000000 &
b00000000000000000000000000000000 '
0(
b00000000000000000000000000000000 )
b00000000000000000000000000000000 *
b00000000000000000000000000000000 +
b00000000000000000000000000000000 ,
b00000000000000000000000000000000 -
b00000000000000000000000000000000 .
b00000000000000000000000000000000 /
b00000000000000000000000000000000 0
b00000000000000000000000000000000 1
b00000000000000000000000000000000 2
b00000000000000000000000000000000 3
b00000000000000000000000000000000 4
b00000000000000000000000000000000 5
b00000000000000000000000000000000 6
b00000000000000000000000000000000 7
b00000000000000000000000000000000 8
b00000000000000000000000000000000 9
b00000000000000000000000000000000 :
b00000000000000000000000000000000 ;
b00000000000000000000000000000000 <
b00000000000000000000000000000000 =
b00000000000000000000000000000000 >
b00000000000000000000000000000000 ?
b00000000000000000000000000000000 @
b00000000000000000000000000000000 A
b00000000000000000000000000000000 B
b00000000000000000000000000000000 C
b00000000000000000000000000000000 D
b00000000000000000000000000000000 E
b00000000000000000000000000000000 F
b00000000000000000000000000000000 G
b00000000000000000000000000000000 H
b00000000000000000000000000000000 I
b00000000000000000000000000000000 J
b00000000000000000000000000000000 K
b00000000000000000000000000000000 L
b00000000000000000000000000000000 M
0N
0O
0P
0Q
0R
0S
b00000000000000000000000000000000 T
b00000000000000000000000000000000 U
b00000000000000000000000000000100 V
b00000000000000000000000000000000 W
b00 X
b000 Y
b0000 Z
b0000000 [
b000 \
0]
b00 ^
0_
0`
0a
0b
b00000 c
b00000 d
b00000 e
b0000000000000000000000000 f
b00000000000000000000000000000000 g
1h
b00000000000000000000000000000000 i
b00000000000000000000000000000000 j
b00000000000000000000000000000000 k
b00000000000000000000000000000000 l
b00000000000000000000000000000000 m
b00 n
b00 o
b00 p
b00 q
b00 r
b00 s
b00 t
b00 u
b00 v
b00 w
b00 x
b00 y
b00 z
b00 {
b00 |
b00 }
b00000000000000000000000000 ~
b00 !!
0"!
0#!
b0000 $!
b00 %!
b00000000000000000000000000000000 &!
b00000000000000000000000000000000 '!
b00000000000000000000000000000000 (!
1)!
1*!
0+!
b00000000000000000000000000000000 ,!
0-!
b00000000000000000000000000000000 .!
b00000000000000000000000000100000 /!
b00000000000000000000000000000101 0!
b00000000000000000000000000000100 1!
b00000000000000000000000000011010 2!
b00000000000000000000000000001000 3!
b00000000000000000000000000000100 4!
b00000000000000010000000000000000 5!
b00000000000000011111111111111111 6!
b10111111110000000000000000000000 7!
b10111111110000000000111111111111 8!
#1
b00000000000000000000000000010000 #
b00000000000000000000000000000100 $
b00000000000000010000000000000000 %
b00000000000000000000000000100000 &
1Q
1R
b00000001000000000000000011101111 T
b10111111110000000000000000000000 U
b10111111110000000000000000000100 V
b00000000000000000000000000010000 W
b10 X
b011 Y
b1101111 [
1`
1a
b10000 d
b00001 e
b0000000100000000000000001 f
b10111111110000000000000000000000 g
0)!
1-!
b10111111110000000000000000000100 .!
#2
1)!
#3
b10111111110000000000000000000100 /
0)!
#4
1)!
#5
0)!
#6
1)!
#7
0)!
#8
1)!
0*!
#9
0)!
#10
1P
0R
b00010000000000000000010110010011 T
b10111111110000000000000000010000 U
b10111111110000000000000000010100 V
b00000000000000000000000100000000 W
b00 X
b000 Y
b0010011 [
b10 ^
0`
0a
b00000 d
b01011 e
b0001000000000000000001011 f
b10111111110000000000000000010000 g
0h
b00000000000000000000000100000000 i
b00000000000000000000000100 ~
b00000000000000000000000100000000 '!
b00000000000000000000000100000000 (!
1)!
0-!
b00000000000000000000000100000000 .!
#11
b00000000000000000000000100000000 9
0)!
#12
b11111111111101011000010110010011 T
b10111111110000000000000000010100 U
b10111111110000000000000000011000 V
b11111111111111111111111111111111 W
1]
b01011 c
b11111 d
b1111111111110101100001011 f
b10111111110000000000000000010100 g
b00000000000000000000000011111111 i
b00000000000000000000000100000000 j
b00000000000000000000000011 ~
b11 !!
b1111 $!
b00000000000000000000000011111100 '!
b11111111111111111111111111111111 (!
1)!
b00000000000000000000000011111111 .!
#13
b00000000000000000000000011111111 9
b00000000000000000000000011111110 i
b00000000000000000000000011111111 j
b10 !!
0)!
b00000000000000000000000011111110 .!
#14
1O
0Q
1R
1S
b00010000000001011000000000100011 T
b10111111110000000000000000011000 U
b10111111110000000000000000011100 V
b00000000000000000000000100000000 W
b001 Y
b0100011 [
0]
b00 ^
1a
b00000 d
b00000 e
b0001000000000101100000000 f
b10111111110000000000000000011000 g
b00000000000000000000000111111111 i
b00000000000000000000000111 ~
b11 !!
b00000000000000000000000000000100 &!
b00000000000000000000000111111100 '!
b00000000000000000000000100000000 (!
1)!
b00000000000000000000000111111111 .!
#15
1(
b00000000000000000000000000000100 -
b01 }
1"!
b00000000000000000000000000000110 &!
b00000000000000000000000111111111 '!
0)!
#16
0O
0P
0R
0S
b11111110000001011001110011100011 T
b10111111110000000000000000011100 U
b10111111110000000000000000100000 V
b11111111111111111111111111111000 W
b010 Y
b1000 Z
b1100011 [
b001 \
1]
b01 ^
1_
1b
b11001 e
b1111111000000101100111001 f
b10111111110000000000000000011100 g
b00000000000000000000000011111111 i
b00000000000000000000000011 ~
0"!
b00000000000000000000000011111111 '!
b00000000000000000000000000000000 (!
1)!
1-!
b00000000000000000000000011111111 .!
#17
0)!
#18
1P
1Q
b11111111111101011000010110010011 T
b10111111110000000000000000010100 U
b10111111110000000000000000011000 V
b11111111111111111111111111111111 W
b000 Y
b0000 Z
b0010011 [
b000 \
b10 ^
0_
0a
0b
b11111 d
b01011 e
b1111111111110101100001011 f
b10111111110000000000000000010100 g
b00000000000000000000000011111110 i
b10 !!
b00000000000000000000000011111110 '!
b11111111111111111111111111111111 (!
1)!
0-!
b00000000000000000000000011111110 .!
#19
b00000000000000000000000011111110 9
b00000000000000000000000011111101 i
b00000000000000000000000011111110 j
b01 !!
b00000000000000000000000011111101 '!
0)!
b00000000000000000000000011111101 .!
#20
1O
0Q
1R
1S
b00010000000001011000000000100011 T
b10111111110000000000000000011000 U
b10111111110000000000000000011100 V
b00000000000000000000000100000000 W
b001 Y
b0100011 [
0]
b00 ^
1a
b00000 d
b00000 e
b0001000000000101100000000 f
b10111111110000000000000000011000 g
b00000000000000000000000111111110 i
b00000000000000000000000111 ~
b10 !!
1"!
b00000000000000000000000111111110 '!
b00000000000000000000000100000000 (!
1)!
b00000000000000000000000111111110 .!
#21
b00000000000000000000000000000100 +
b00000000000000000000000000000100 ,
0)!
#22
0O
0P
0R
0S
b11111110000001011001110011100011 T
b10111111110000000000000000011100 U
b10111111110000000000000000100000 V
b11111111111111111111111111111000 W
b010 Y
b1000 Z
b1100011 [
b001 \
1]
b01 ^
1_
1b
b11001 e
b1111111000000101100111001 f
b10111111110000000000000000011100 g
b00000000000000000000000011111110 i
b00000000000000000000000011 ~
0"!
b00000000000000000000000011111110 '!
b00000000000000000000000000000000 (!
1)!
1-!
b00000000000000000000000011111110 .!
#23
0)!
#24
1P
1Q
b11111111111101011000010110010011 T
b10111111110000000000000000010100 U
b10111111110000000000000000011000 V
b11111111111111111111111111111111 W
b000 Y
b0000 Z
b0010011 [
b000 \
b10 ^
0_
0a
0b
b11111 d
b01011 e
b1111111111110101100001011 f
b10111111110000000000000000010100 g
b00000000000000000000000011111101 i
b01 !!
b00000000000000000000000011111101 '!
b11111111111111111111111111111111 (!
1)!
0-!
b00000000000000000000000011111101 .!
#25
b00000000000000000000000011111101 9
b00000000000000000000000011111100 i
b00000000000000000000000011111101 j
b00 !!
b00000000000000000000000011111100 '!
0)!
b00000000000000000000000011111100 .!
#26
1O
0Q
1R
1S
b00010000000001011000000000100011 T
b10111111110000000000000000011000 U
b10111111110000000000000000011100 V
b00000000000000000000000100000000 W
b001 Y
b0100011 [
0]
b00 ^
1a
b00000 d
b00000 e
b0001000000000101100000000 f
b10111111110000000000000000011000 g
b00000000000000000000000111111101 i
b00000000000000000000000111 ~
b01 !!
1"!
b00000000000000000000000111111101 '!
b00000000000000000000000100000000 (!
1)!
b00000000000000000000000111111101 .!
#27
0)!
#28
0O
0P
0R
0S
b11111110000001011001110011100011 T
b10111111110000000000000000011100 U
b10111111110000000000000000100000 V
b11111111111111111111111111111000 W
b010 Y
b1000 Z
b1100011 [
b001 \
1]
b01 ^
1_
1b
b11001 e
b1111111000000101100111001 f
b10111111110000000000000000011100 g
b00000000000000000000000011111101 i
b00000000000000000000000011 ~
0"!
b00000000000000000000000011111101 '!
b00000000000000000000000000000000 (!
1)!
1-!
b00000000000000000000000011111101 .!
#29
0)!
#30
1P
1Q
b11111111111101011000010110010011 T
b10111111110000000000000000010100 U
b10111111110000000000000000011000 V
b11111111111111111111111111111111 W
b000 Y
b0000 Z
b0010011 [
b000 \
b10 ^
0_
0a
0b
b11111 d
b01011 e
b1111111111110101100001011 f
b10111111110000000000000000010100 g
b00000000000000000000000011111100 i
b00 !!
b00000000000000000000000011111100 '!
b11111111111111111111111111111111 (!
1)!
0-!
b00000000000000000000000011111100 .!
#31
b00000000000000000000000011111100 9
b00000000000000000000000011111011 i
b00000000000000000000000011111100 j
b11 !!
b1110 $!
b00000000000000000000000011111011 '!
0)!
b00000000000000000000000011111011 .!
#32
1O
0Q
1R
1S
b00010000000001011000000000100011 T
b10111111110000000000000000011000 U
b10111111110000000000000000011100 V
b00000000000000000000000100000000 W
b001 Y
b0100011 [
0]
b00 ^
1a
b00000 d
b00000 e
b0001000000000101100000000 f
b10111111110000000000000000011000 g
b00000000000000000000000111111100 i
b00000000000000000000000111 ~
b00 !!
1"!
b1111 $!
b00000000000000000000000111111100 '!
b00000000000000000000000100000000 (!
1)!
b00000000000000000000000111111100 .!
#33
0)!
#34
0O
0P
0R
0S
b11111110000001011001110011100011 T
b10111111110000000000000000011100 U
b10111111110000000000000000100000 V
b11111111111111111111111111111000 W
b010 Y
b1000 Z
b1100011 [
b001 \
1]
b01 ^
1_
1b
b11001 e
b1111111000000101100111001 f
b10111111110000000000000000011100 g
b00000000000000000000000011111100 i
b00000000000000000000000011 ~
0"!
b00000000000000000000000011111100 '!
b00000000000000000000000000000000 (!
1)!
1-!
b00000000000000000000000011111100 .!
#35
0)!
#36
1P
1Q
b11111111111101011000010110010011 T
b10111111110000000000000000010100 U
b10111111110000000000000000011000 V
b11111111111111111111111111111111 W
b000 Y
b0000 Z
b0010011 [
b000 \
b10 ^
0_
0a
0b
b11111 d
b01011 e
b1111111111110101100001011 f
b10111111110000000000000000010100 g
b00000000000000000000000011111011 i
b11 !!
b1110 $!
b00000000000000000000000011111011 '!
b11111111111111111111111111111111 (!
1)!
0-!
b00000000000000000000000011111011 .!
#37
b00000000000000000000000011111011 9
b00000000000000000000000011111010 i
b00000000000000000000000011111011 j
b10 !!
b00000000000000000000000011111010 '!
0)!
b00000000000000000000000011111010 .!
#38
1O
0Q
1R
1S
b00010000000001011000000000100011 T
b10111111110000000000000000011000 U
b10111111110000000000000000011100 V
b00000000000000000000000100000000 W
b001 Y
b0100011 [
0]
b00 ^
1a
b00000 d
b00000 e
b0001000000000101100000000 f
b10111111110000000000000000011000 g
b00000000000000000000000111111011 i
b00000000000000000000000111 ~
b11 !!
b00000000000000000000000000000100 &!
b00000000000000000000000111111011 '!
b00000000000000000000000100000000 (!
1)!
b00000000000000000000000111111011 .!
#39
b01 |
1"!
b00000000000000000000000000000110 &!
0)!
#40
0O
0P
0R
0S
b11111110000001011001110011100011 T
b10111111110000000000000000011100 U
b10111111110000000000000000100000 V
b11111111111111111111111111111000 W
b010 Y
b1000 Z
b1100011 [
b001 \
1]
b01 ^
1_
1b
b11001 e
b1111111000000101100111001 f
b10111111110000000000000000011100 g
b00000000000000000000000011111011 i
b00000000000000000000000011 ~
0"!
b00000000000000000000000011111011 '!
b00000000000000000000000000000000 (!
1)!
1-!
b00000000000000000000000011111011 .!
#41
0)!
#42
1P
1Q
b11111111111101011000010110010011 T
b10111111110000000000000000010100 U
b10111111110000000000000000011000 V
b11111111111111111111111111111111 W
b000 Y
b0000 Z
b0010011 [
b000 \
b10 ^
0_
0a
0b
b11111 d
b01011 e
b1111111111110101100001011 f
b10111111110000000000000000010100 g
b00000000000000000000000011111010 i
b10 !!
b00000000000000000000000011111010 '!
b11111111111111111111111111111111 (!
1)!
0-!
b00000000000000000000000011111010 .!
#43
b00000000000000000000000011111010 9
b00000000000000000000000011111001 i
b00000000000000000000000011111010 j
b01 !!
b00000000000000000000000011111001 '!
0)!
b00000000000000000000000011111001 .!
#44
1O
0Q
1R
1S
b00010000000001011000000000100011 T
b10111111110000000000000000011000 U
b10111111110000000000000000011100 V
b00000000000000000000000100000000 W
b001 Y
b0100011 [
0]
b00 ^
1a
b00000 d
b00000 e
b0001000000000101100000000 f
b10111111110000000000000000011000 g
b00000000000000000000000111111010 i
b00000000000000000000000111 ~
b10 !!
1"!
b00000000000000000000000111111010 '!
b00000000000000000000000100000000 (!
1)!
b00000000000000000000000111111010 .!
#45
0)!
#46
0O
0P
0R
0S
b11111110000001011001110011100011 T
b10111111110000000000000000011100 U
b10111111110000000000000000100000 V
b11111111111111111111111111111000 W
b010 Y
b1000 Z
b1100011 [
b001 \
1]
b01 ^
1_
1b
b11001 e
b1111111000000101100111001 f
b10111111110000000000000000011100 g
b00000000000000000000000011111010 i
b00000000000000000000000011 ~
0"!
b00000000000000000000000011111010 '!
b00000000000000000000000000000000 (!
1)!
1-!
b00000000000000000000000011111010 .!
#47
0)!
#48
1P
1Q
b11111111111101011000010110010011 T
b10111111110000000000000000010100 U
b10111111110000000000000000011000 V
b11111111111111111111111111111111 W
b000 Y
b0000 Z
b0010011 [
b000 \
b10 ^
0_
0a
0b
b11111 d
b01011 e
b1111111111110101100001011 f
b10111111110000000000000000010100 g
b00000000000000000000000011111001 i
b01 !!
b00000000000000000000000011111001 '!
b11111111111111111111111111111111 (!
1)!
0-!
b00000000000000000000000011111001 .!
#49
b00000000000000000000000011111001 9
b00000000000000000000000011111000 i
b00000000000000000000000011111001 j
b00 !!
b00000000000000000000000011111000 '!
0)!
b00000000000000000000000011111000 .!
#50
1O
0Q
1R
1S
b00010000000001011000000000100011 T
b10111111110000000000000000011000 U
b10111111110000000000000000011100 V
b00000000000000000000000100000000 W
b001 Y
b0100011 [
0]
b00 ^
1a
b00000 d
b00000 e
b0001000000000101100000000 f
b10111111110000000000000000011000 g
b00000000000000000000000111111001 i
b00000000000000000000000111 ~
b01 !!
1"!
b00000000000000000000000111111001 '!
b00000000000000000000000100000000 (!
1)!
b00000000000000000000000111111001 .!
#51
0)!
#52
0O
0P
0R
0S
b11111110000001011001110011100011 T
b10111111110000000000000000011100 U
b10111111110000000000000000100000 V
b11111111111111111111111111111000 W
b010 Y
b1000 Z
b1100011 [
b001 \
1]
b01 ^
1_
1b
b11001 e
b1111111000000101100111001 f
b10111111110000000000000000011100 g
b00000000000000000000000011111001 i
b00000000000000000000000011 ~
0"!
b00000000000000000000000011111001 '!
b00000000000000000000000000000000 (!
1)!
1-!
b00000000000000000000000011111001 .!
#53
0)!
#54
1P
1Q
b11111111111101011000010110010011 T
b10111111110000000000000000010100 U
b10111111110000000000000000011000 V
b11111111111111111111111111111111 W
b000 Y
b0000 Z
b0010011 [
b000 \
b10 ^
0_
0a
0b
b11111 d
b01011 e
b1111111111110101100001011 f
b10111111110000000000000000010100 g
b00000000000000000000000011111000 i
b00 !!
b00000000000000000000000011111000 '!
b11111111111111111111111111111111 (!
1)!
0-!
b00000000000000000000000011111000 .!
#55
b00000000000000000000000011111000 9
b00000000000000000000000011110111 i
b00000000000000000000000011111000 j
b11 !!
b1101 $!
b00000000000000000000000011110111 '!
0)!
b00000000000000000000000011110111 .!
#56
1O
0Q
1R
1S
b00010000000001011000000000100011 T
b10111111110000000000000000011000 U
b10111111110000000000000000011100 V
b00000000000000000000000100000000 W
b001 Y
b0100011 [
0]
b00 ^
1a
b00000 d
b00000 e
b0001000000000101100000000 f
b10111111110000000000000000011000 g
b00000000000000000000000111111000 i
b00000000000000000000000111 ~
b00 !!
1"!
b1110 $!
b00000000000000000000000111111000 '!
b00000000000000000000000100000000 (!
1)!
b00000000000000000000000111111000 .!
#57
0)!
#58
0O
0P
0R
0S
b11111110000001011001110011100011 T
b10111111110000000000000000011100 U
b10111111110000000000000000100000 V
b11111111111111111111111111111000 W
b010 Y
b1000 Z
b1100011 [
b001 \
1]
b01 ^
1_
1b
b11001 e
b1111111000000101100111001 f
b10111111110000000000000000011100 g
b00000000000000000000000011111000 i
b00000000000000000000000011 ~
0"!
b00000000000000000000000011111000 '!
b00000000000000000000000000000000 (!
1)!
1-!
b00000000000000000000000011111000 .!
#59
0)!
#60
1P
1Q
b11111111111101011000010110010011 T
b10111111110000000000000000010100 U
b10111111110000000000000000011000 V
b11111111111111111111111111111111 W
b000 Y
b0000 Z
b0010011 [
b000 \
b10 ^
0_
0a
0b
b11111 d
b01011 e
b1111111111110101100001011 f
b10111111110000000000000000010100 g
b00000000000000000000000011110111 i
b11 !!
b1101 $!
b00000000000000000000000011110111 '!
b11111111111111111111111111111111 (!
1)!
0-!
b00000000000000000000000011110111 .!
#61
b00000000000000000000000011110111 9
b00000000000000000000000011110110 i
b00000000000000000000000011110111 j
b10 !!
b00000000000000000000000011110110 '!
0)!
b00000000000000000000000011110110 .!
#62
1O
0Q
1R
1S
b00010000000001011000000000100011 T
b10111111110000000000000000011000 U
b10111111110000000000000000011100 V
b00000000000000000000000100000000 W
b001 Y
b0100011 [
0]
b00 ^
1a
b00000 d
b00000 e
b0001000000000101100000000 f
b10111111110000000000000000011000 g
b00000000000000000000000111110111 i
b00000000000000000000000111 ~
b11 !!
b00000000000000000000000000000100 &!
b00000000000000000000000111110111 '!
b00000000000000000000000100000000 (!
1)!
b00000000000000000000000111110111 .!
#63
b01 {
1"!
b00000000000000000000000000000110 &!
0)!
#64
0O
0P
0R
0S
b11111110000001011001110011100011 T
b10111111110000000000000000011100 U
b10111111110000000000000000100000 V
b11111111111111111111111111111000 W
b010 Y
b1000 Z
b1100011 [
b001 \
1]
b01 ^
1_
1b
b11001 e
b1111111000000101100111001 f
b10111111110000000000000000011100 g
b00000000000000000000000011110111 i
b00000000000000000000000011 ~
0"!
b00000000000000000000000011110111 '!
b00000000000000000000000000000000 (!
1)!
1-!
b00000000000000000000000011110111 .!
#65
0)!
#66
1P
1Q
b11111111111101011000010110010011 T
b10111111110000000000000000010100 U
b10111111110000000000000000011000 V
b11111111111111111111111111111111 W
b000 Y
b0000 Z
b0010011 [
b000 \
b10 ^
0_
0a
0b
b11111 d
b01011 e
b1111111111110101100001011 f
b10111111110000000000000000010100 g
b00000000000000000000000011110110 i
b10 !!
b00000000000000000000000011110110 '!
b11111111111111111111111111111111 (!
1)!
0-!
b00000000000000000000000011110110 .!
