RTL/pdf.vcd
$version Generated by VerilatedVcd $end
$date Fri Dec 15 00:27:30 2023 $end
$timescale 1ps $end

 $scope module TOP $end
  $var wire 32 !! a0_o [31:0] $end
  $var wire  1 | clk_i $end
  $var wire  1 } rst_i $end
  $var wire  1 ~ trigger_i $end
  $scope module cpu $end
   $var wire 32 $! DATA_WIDTH [31:0] $end
   $var wire  1 S JALR_instr $end
   $var wire  1 "! JB_instr $end
   $var wire 32 !! a0_o [31:0] $end
   $var wire  4 _ alu_control [3:0] $end
   $var wire 32 n alu_out [31:0] $end
   $var wire  1 U alu_src $end
   $var wire  1 W byte_address $end
   $var wire  1 X cach_enable $end
   $var wire  1 | clk_i $end
   $var wire 32 \ imm_ext [31:0] $end
   $var wire  3 ^ imm_src [2:0] $end
   $var wire 32 Y instr [31:0] $end
   $var wire  1 T mem_write $end
   $var wire 32 [ pc_plus_4 [31:0] $end
   $var wire 32 Z pc_var [31:0] $end
   $var wire  1 V reg_write $end
   $var wire  2 ] result_src [1:0] $end
   $var wire  1 } rst_i $end
   $var wire  1 ~ trigger_i $end
   $var wire  1 m zero $end
   $scope module controlUnit_top $end
    $var wire  1 S JALR_instr_o $end
    $var wire  1 "! JB_instr_o $end
    $var wire  4 _ alu_control_o [3:0] $end
    $var wire  2 c alu_op [1:0] $end
    $var wire  1 U alu_src_o $end
    $var wire  1 d branch $end
    $var wire  1 W byte_address_o $end
    $var wire  1 X cache_enable_o $end
    $var wire  3 a funct3_i [2:0] $end
    $var wire  1 b funct7_5_i $end
    $var wire  3 ^ imm_src_o [2:0] $end
    $var wire  1 e jmp $end
    $var wire  1 T mem_write_o $end
    $var wire  7 ` op_i [6:0] $end
    $var wire  1 V reg_write_o $end
    $var wire  2 ] result_src_o [1:0] $end
    $var wire  1 m zero_i $end
    $scope module aluDecoder $end
     $var wire  4 _ alu_control_o [3:0] $end
     $var wire  2 c alu_op_i [1:0] $end
     $var wire  1 W byte_address_o $end
     $var wire  3 a funct3_i [2:0] $end
     $var wire  1 b funct7_b5_i $end
     $var wire  1 f op_5_i $end
     $var wire  1 g rTypeSub $end
    $upscope $end
    $scope module mainDecoder $end
     $var wire  1 S JALR_o $end
     $var wire  2 c alu_op_o [1:0] $end
     $var wire  1 U alu_src_o $end
     $var wire  1 d branch_o $end
     $var wire  1 X cache_enable_o $end
     $var wire  3 ^ imm_src_o [2:0] $end
     $var wire  1 e jump_o $end
     $var wire  1 T mem_write_o $end
     $var wire  7 ` op_i [6:0] $end
     $var wire  1 V reg_write_o $end
     $var wire  2 ] result_src_o [1:0] $end
    $upscope $end
   $upscope $end
   $scope module datapath $end
    $var wire 32 $! DATA_WIDTH [31:0] $end
    $var wire 32 %! REG_ADDR_LENGTH [31:0] $end
    $var wire 32 !! a0_o [31:0] $end
    $var wire  4 _ alu_control_i [3:0] $end
    $var wire 32 n alu_out_o [31:0] $end
    $var wire  1 U alu_src_i $end
    $var wire  1 X cache_enable_i $end
    $var wire  1 | clk_i $end
    $var wire  1 W data_mem_byte_op_i $end
    $var wire 32 t data_mem_rd [31:0] $end
    $var wire  1 T data_mem_we_i $end
    $var wire  1 m eq_o $end
    $var wire 32 \ imm_ext_i [31:0] $end
    $var wire 32 [ pc_next_i [31:0] $end
    $var wire  5 h reg_addr1_i [4:0] $end
    $var wire  5 i reg_addr2_i [4:0] $end
    $var wire  5 j reg_addr3_i [4:0] $end
    $var wire 32 o reg_rd1 [31:0] $end
    $var wire 32 p reg_rd2 [31:0] $end
    $var wire 32 #! reg_wd [31:0] $end
    $var wire  1 V reg_we_i $end
    $var wire  2 ] result_src_i [1:0] $end
    $var wire  1 ~ trigger_i $end
    $scope module cached_datamemory $end
     $var wire 32 n address_i [31:0] $end
     $var wire  1 W byte_op_i $end
     $var wire  1 X cache_enable_i $end
     $var wire  1 | clk_i $end
     $var wire 32 n mem_address [31:0] $end
     $var wire  1 w mem_byte_op $end
     $var wire 32 u mem_incoming_data [31:0] $end
     $var wire 32 v mem_write_data [31:0] $end
     $var wire  1 T mem_write_enable $end
     $var wire 32 t read_data_o [31:0] $end
     $var wire 32 p write_data_i [31:0] $end
     $var wire  1 T write_enable_i $end
     $scope module line $end
      $var wire 32 n address_i [31:0] $end
      $var wire  1 W byte_op_i $end
      $var wire  2 r byteoffset [1:0] $end
      $var wire 32 & cache_data[0] [31:0] $end
      $var wire 32 ' cache_data[1] [31:0] $end
      $var wire 32 ( cache_data[2] [31:0] $end
      $var wire 32 ) cache_data[3] [31:0] $end
      $var wire  1 X cache_enable_i $end
      $var wire 30 * cache_tag[0] [29:0] $end
      $var wire 30 + cache_tag[1] [29:0] $end
      $var wire 30 , cache_tag[2] [29:0] $end
      $var wire 30 - cache_tag[3] [29:0] $end
      $var wire  1 | clk_i $end
      $var wire  2 2 counter [1:0] $end
      $var wire  1 x hit $end
      $var wire 32 n mem_address_o [31:0] $end
      $var wire  1 w mem_byte_op_o $end
      $var wire 32 u mem_incoming_data_i [31:0] $end
      $var wire 32 v mem_write_data_o [31:0] $end
      $var wire  1 T mem_write_enable_o $end
      $var wire 32 t read_data_o [31:0] $end
      $var wire 30 q tag [29:0] $end
      $var wire 32 &! tag_bits [31:0] $end
      $var wire  1 . valid[0] $end
      $var wire  1 / valid[1] $end
      $var wire  1 0 valid[2] $end
      $var wire  1 1 valid[3] $end
      $var wire  2 y wayhit [1:0] $end
      $var wire 32 $! width [31:0] $end
      $var wire 32 p write_data_i [31:0] $end
      $var wire  1 T write_enable_i $end
      $scope module unnamedblk1 $end
       $var wire 32 # i [31:0] $end
      $upscope $end
      $scope module unnamedblk2 $end
       $var wire 32 z i [31:0] $end
      $upscope $end
     $upscope $end
     $scope module memory $end
      $var wire 32 '! BYTE_WIDTH [31:0] $end
      $var wire 32 $! DATA_WIDTH [31:0] $end
      $var wire 32 )! END_ADDRESS [31:0] $end
      $var wire 32 (! START_ADDRESS [31:0] $end
      $var wire 32 { addr [31:0] $end
      $var wire 32 n addr_i [31:0] $end
      $var wire  1 w byte_op_i $end
      $var wire  1 | clk_i $end
      $var wire 32 u rd_o [31:0] $end
      $var wire 32 v wd_i [31:0] $end
      $var wire  1 T we_i $end
      $scope module unnamedblk1 $end
       $var wire 32 $ i [31:0] $end
      $upscope $end
     $upscope $end
    $upscope $end
    $scope module datapath_alu $end
     $var wire 32 $! DATA_WIDTH [31:0] $end
     $var wire  4 _ alu_control_i [3:0] $end
     $var wire 32 n alu_result_o [31:0] $end
     $var wire  1 m eq_o $end
     $var wire 32 o src1_i [31:0] $end
     $var wire 32 s src2_i [31:0] $end
    $upscope $end
    $scope module datapath_register_file $end
     $var wire 32 %! ADDRESS_WIDTH [31:0] $end
     $var wire 32 $! DATA_WIDTH [31:0] $end
     $var wire 32 !! a0_o [31:0] $end
     $var wire  5 h addr1_i [4:0] $end
     $var wire  5 i addr2_i [4:0] $end
     $var wire  5 j addr3_i [4:0] $end
     $var wire 32 #! addr3_wd_i [31:0] $end
     $var wire  1 V addr3_we_i $end
     $var wire  1 | clk_i $end
     $var wire 32 o rd1_o [31:0] $end
     $var wire 32 p rd2_o [31:0] $end
     $var wire 32 3 rf[0] [31:0] $end
     $var wire 32 = rf[10] [31:0] $end
     $var wire 32 > rf[11] [31:0] $end
     $var wire 32 ? rf[12] [31:0] $end
     $var wire 32 @ rf[13] [31:0] $end
     $var wire 32 A rf[14] [31:0] $end
     $var wire 32 B rf[15] [31:0] $end
     $var wire 32 C rf[16] [31:0] $end
     $var wire 32 D rf[17] [31:0] $end
     $var wire 32 E rf[18] [31:0] $end
     $var wire 32 F rf[19] [31:0] $end
     $var wire 32 4 rf[1] [31:0] $end
     $var wire 32 G rf[20] [31:0] $end
     $var wire 32 H rf[21] [31:0] $end
     $var wire 32 I rf[22] [31:0] $end
     $var wire 32 J rf[23] [31:0] $end
     $var wire 32 K rf[24] [31:0] $end
     $var wire 32 L rf[25] [31:0] $end
     $var wire 32 M rf[26] [31:0] $end
     $var wire 32 N rf[27] [31:0] $end
     $var wire 32 O rf[28] [31:0] $end
     $var wire 32 P rf[29] [31:0] $end
     $var wire 32 5 rf[2] [31:0] $end
     $var wire 32 Q rf[30] [31:0] $end
     $var wire 32 R rf[31] [31:0] $end
     $var wire 32 6 rf[3] [31:0] $end
     $var wire 32 7 rf[4] [31:0] $end
     $var wire 32 8 rf[5] [31:0] $end
     $var wire 32 9 rf[6] [31:0] $end
     $var wire 32 : rf[7] [31:0] $end
     $var wire 32 ; rf[8] [31:0] $end
     $var wire 32 < rf[9] [31:0] $end
     $var wire  1 ~ trigger_i $end
     $scope module unnamedblk1 $end
      $var wire 32 % i [31:0] $end
     $upscope $end
    $upscope $end
   $upscope $end
   $scope module extend_unit $end
    $var wire 32 $! DATA_WIDTH [31:0] $end
    $var wire 32 \ imm_ext_o [31:0] $end
    $var wire  3 ^ imm_src_i [2:0] $end
    $var wire 25 k instr_i [31:7] $end
   $upscope $end
   $scope module instruction_memory $end
    $var wire 32 '! BYTE_SIZE [31:0] $end
    $var wire 32 $! DATA_WIDTH [31:0] $end
    $var wire 32 *! FIRST_INSTR_ADDR [31:0] $end
    $var wire 32 +! LAST_INSTR_ADDR [31:0] $end
    $var wire 32 l addr [31:0] $end
    $var wire 32 Z addr_i [31:0] $end
    $var wire 32 Y instr_o [31:0] $end
   $upscope $end
   $scope module program_counter $end
    $var wire 32 $! PC_WIDTH [31:0] $end
    $var wire  1 | clk_i $end
    $var wire 32 \ imm_ext_i [31:0] $end
    $var wire  1 S jalr_instr_i $end
    $var wire 32 n jta_jalr_i [31:0] $end
    $var wire  1 "! jump_taken_i $end
    $var wire 32 Z pc_next [31:0] $end
    $var wire 32 Z pc_o [31:0] $end
    $var wire 32 [ pc_plus4_o [31:0] $end
    $var wire  1 } rst_i $end
   $upscope $end
  $upscope $end
 $upscope $end
$enddefinitions $end


#0
b00000000000000000000000000000000 #
b00000000000000000000000000000000 $
b00000000000000000000000000000000 %
b00000000000000000000000000000000 &
b00000000000000000000000000000000 '
b00000000000000000000000000000000 (
b00000000000000000000000000000000 )
b000000000000000000000000000000 *
b000000000000000000000000000000 +
b000000000000000000000000000000 ,
b000000000000000000000000000000 -
0.
0/
00
01
b00 2
b00000000000000000000000000000000 3
b00000000000000000000000000000000 4
b00000000000000000000000000000000 5
b00000000000000000000000000000000 6
b00000000000000000000000000000000 7
b00000000000000000000000000000000 8
b00000000000000000000000000000000 9
b00000000000000000000000000000000 :
b00000000000000000000000000000000 ;
b00000000000000000000000000000000 <
b00000000000000000000000000000000 =
b00000000000000000000000000000000 >
b00000000000000000000000000000000 ?
b00000000000000000000000000000000 @
b00000000000000000000000000000000 A
b00000000000000000000000000000000 B
b00000000000000000000000000000000 C
b00000000000000000000000000000000 D
b00000000000000000000000000000000 E
b00000000000000000000000000000000 F
b00000000000000000000000000000000 G
b00000000000000000000000000000000 H
b00000000000000000000000000000000 I
b00000000000000000000000000000000 J
b00000000000000000000000000000000 K
b00000000000000000000000000000000 L
b00000000000000000000000000000000 M
b00000000000000000000000000000000 N
b00000000000000000000000000000000 O
b00000000000000000000000000000000 P
b00000000000000000000000000000000 Q
b00000000000000000000000000000000 R
0S
0T
0U
0V
0W
0X
b00000000000000000000000000000000 Y
b00000000000000000000000000000000 Z
b00000000000000000000000000000100 [
b00000000000000000000000000000000 \
b00 ]
b000 ^
b0000 _
b0000000 `
b000 a
0b
b00 c
0d
0e
0f
0g
b00000 h
b00000 i
b00000 j
b0000000000000000000000000 k
b00000000000000000000000000000000 l
1m
b00000000000000000000000000000000 n
b00000000000000000000000000000000 o
b00000000000000000000000000000000 p
b000000000000000000000000000000 q
b00 r
b00000000000000000000000000000000 s
b00000000000000000000000000000000 t
b00000000000000000000000000000000 u
b00000000000000000000000000000000 v
0w
0x
b00 y
b00000000000000000000000000000000 z
b00000000000000000000000000000000 {
1|
1}
0~
b00000000000000000000000000000000 !!
0"!
b00000000000000000000000000000000 #!
b00000000000000000000000000100000 $!
b00000000000000000000000000000101 %!
b00000000000000000000000000011110 &!
b00000000000000000000000000001000 '!
b00000000000000000000000000000000 (!
b00000000000000011111111111111111 )!
b10111111110000000000000000000000 *!
b10111111110000000000111111111111 +!
#1
b00000000000000000000000000000100 #
b00000000000000000000000000100000 %
1V
1W
b00000001000000000000000011101111 Y
b10111111110000000000000000000000 Z
b10111111110000000000000000000100 [
b00000000000000000000000000010000 \
b10 ]
b011 ^
b1101111 `
1e
1f
b10000 i
b00001 j
b0000000100000000000000001 k
b10111111110000000000000000000000 l
0|
1"!
b10111111110000000000000000000100 #!
#2
1|
#3
b10111111110000000000000000000100 4
0|
#4
1|
#5
0|
#6
1|
#7
0|
#8
1|
0}
#9
0|
#10
1U
0W
b00010000000000000000010110010011 Y
b10111111110000000000000000010000 Z
b10111111110000000000000000010100 [
b00000000000000000000000100000000 \
b00 ]
b000 ^
b0010011 `
b10 c
0e
0f
b00000 i
b01011 j
b0001000000000000000001011 k
b10111111110000000000000000010000 l
0m
b00000000000000000000000100000000 n
b000000000000000000000001000000 q
b00000000000000000000000100000000 s
b00000000000000000000000100000000 {
1|
0"!
b00000000000000000000000100000000 #!
#11
b00000000000000000000000100000000 >
0|
#12
b11111111111101011000010110010011 Y
b10111111110000000000000000010100 Z
b10111111110000000000000000011000 [
b11111111111111111111111111111111 \
1b
b01011 h
b11111 i
b1111111111110101100001011 k
b10111111110000000000000000010100 l
b00000000000000000000000011111111 n
b00000000000000000000000100000000 o
b000000000000000000000000111111 q
b11 r
b11111111111111111111111111111111 s
b00000000000000000000000011111100 {
1|
b00000000000000000000000011111111 #!
#13
b00000000000000000000000011111111 >
b00000000000000000000000011111110 n
b00000000000000000000000011111111 o
b10 r
0|
b00000000000000000000000011111110 #!
#14
1T
0V
1W
1X
b00010000000001011000000000100011 Y
b10111111110000000000000000011000 Z
b10111111110000000000000000011100 [
b00000000000000000000000100000000 \
b001 ^
b0100011 `
0b
b00 c
1f
b00000 i
b00000 j
b0001000000000101100000000 k
b10111111110000000000000000011000 l
b00000000000000000000000111111111 n
b000000000000000000000001111111 q
b11 r
b00000000000000000000000100000000 s
1w
b00000000000000000000000000000100 z
b00000000000000000000000111111111 {
1|
b00000000000000000000000111111111 #!
#15
b000000000000000000000001111111 *
1.
b01 2
1x
b00000000000000000000000000000000 z
0|
#16
0T
0U
0W
0X
b11111110000001011001110011100011 Y
b10111111110000000000000000011100 Z
b10111111110000000000000000100000 [
b11111111111111111111111111111000 \
b010 ^
b1000 _
b1100011 `
b001 a
1b
b01 c
1d
1g
b11001 j
b1111111000000101100111001 k
b10111111110000000000000000011100 l
b00000000000000000000000011111111 n
b000000000000000000000000111111 q
b00000000000000000000000000000000 s
b00000000000000000000000011111111 {
1|
1"!
b00000000000000000000000011111111 #!
#17
0|
#18
1U
1V
b11111111111101011000010110010011 Y
b10111111110000000000000000010100 Z
b10111111110000000000000000011000 [
b11111111111111111111111111111111 \
b000 ^
b0000 _
b0010011 `
b000 a
b10 c
0d
0f
0g
b11111 i
b01011 j
b1111111111110101100001011 k
b10111111110000000000000000010100 l
b00000000000000000000000011111110 n
b10 r
b11111111111111111111111111111111 s
b00000000000000000000000011111110 {
1|
0"!
b00000000000000000000000011111110 #!
#19
b00000000000000000000000011111110 >
b00000000000000000000000011111101 n
b00000000000000000000000011111110 o
b01 r
b00000000000000000000000011111101 {
0|
b00000000000000000000000011111101 #!
#20
1T
0V
1W
1X
b00010000000001011000000000100011 Y
b10111111110000000000000000011000 Z
b10111111110000000000000000011100 [
b00000000000000000000000100000000 \
b001 ^
b0100011 `
0b
b00 c
1f
b00000 i
b00000 j
b0001000000000101100000000 k
b10111111110000000000000000011000 l
b00000000000000000000000111111110 n
b000000000000000000000001111111 q
b10 r
b00000000000000000000000100000000 s
b00000000000000000000000111111110 {
1|
b00000000000000000000000111111110 #!
#21
b10 2
0|
#22
0T
0U
0W
0X
b11111110000001011001110011100011 Y
b10111111110000000000000000011100 Z
b10111111110000000000000000100000 [
b11111111111111111111111111111000 \
b010 ^
b1000 _
b1100011 `
b001 a
1b
b01 c
1d
1g
b11001 j
b1111111000000101100111001 k
b10111111110000000000000000011100 l
b00000000000000000000000011111110 n
b000000000000000000000000111111 q
b00000000000000000000000000000000 s
b00000000000000000000000011111110 {
1|
1"!
b00000000000000000000000011111110 #!
#23
0|
#24
1U
1V
b11111111111101011000010110010011 Y
b10111111110000000000000000010100 Z
b10111111110000000000000000011000 [
b11111111111111111111111111111111 \
b000 ^
b0000 _
b0010011 `
b000 a
b10 c
0d
0f
0g
b11111 i
b01011 j
b1111111111110101100001011 k
b10111111110000000000000000010100 l
b00000000000000000000000011111101 n
b01 r
b11111111111111111111111111111111 s
b00000000000000000000000011111101 {
1|
0"!
b00000000000000000000000011111101 #!
#25
b00000000000000000000000011111101 >
b00000000000000000000000011111100 n
b00000000000000000000000011111101 o
b00 r
b00000000000000000000000011111100 {
0|
b00000000000000000000000011111100 #!
#26
1T
0V
1W
1X
b00010000000001011000000000100011 Y
b10111111110000000000000000011000 Z
b10111111110000000000000000011100 [
b00000000000000000000000100000000 \
b001 ^
b0100011 `
0b
b00 c
1f
b00000 i
b00000 j
b0001000000000101100000000 k
b10111111110000000000000000011000 l
b00000000000000000000000111111101 n
b000000000000000000000001111111 q
b01 r
b00000000000000000000000100000000 s
b00000000000000000000000111111101 {
1|
b00000000000000000000000111111101 #!
#27
b11 2
0|
#28
0T
0U
0W
0X
b11111110000001011001110011100011 Y
b10111111110000000000000000011100 Z
b10111111110000000000000000100000 [
b11111111111111111111111111111000 \
b010 ^
b1000 _
b1100011 `
b001 a
1b
b01 c
1d
1g
b11001 j
b1111111000000101100111001 k
b10111111110000000000000000011100 l
b00000000000000000000000011111101 n
b000000000000000000000000111111 q
b00000000000000000000000000000000 s
b00000000000000000000000011111101 {
1|
1"!
b00000000000000000000000011111101 #!
#29
0|
#30
1U
1V
b11111111111101011000010110010011 Y
b10111111110000000000000000010100 Z
b10111111110000000000000000011000 [
b11111111111111111111111111111111 \
b000 ^
b0000 _
b0010011 `
b000 a
b10 c
0d
0f
0g
b11111 i
b01011 j
b1111111111110101100001011 k
b10111111110000000000000000010100 l
b00000000000000000000000011111100 n
b00 r
b11111111111111111111111111111111 s
b00000000000000000000000011111100 {
1|
0"!
b00000000000000000000000011111100 #!
#31
b00000000000000000000000011111100 >
b00000000000000000000000011111011 n
b00000000000000000000000011111100 o
b000000000000000000000000111110 q
b11 r
b00000000000000000000000011111011 {
0|
b00000000000000000000000011111011 #!
#32
1T
0V
1W
1X
b00010000000001011000000000100011 Y
b10111111110000000000000000011000 Z
b10111111110000000000000000011100 [
b00000000000000000000000100000000 \
b001 ^
b0100011 `
0b
b00 c
1f
b00000 i
b00000 j
b0001000000000101100000000 k
b10111111110000000000000000011000 l
b00000000000000000000000111111100 n
b000000000000000000000001111111 q
b00 r
b00000000000000000000000100000000 s
b00000000000000000000000111111100 {
1|
b00000000000000000000000111111100 #!
#33
b00 2
0|
#34
0T
0U
0W
0X
b11111110000001011001110011100011 Y
b10111111110000000000000000011100 Z
b10111111110000000000000000100000 [
b11111111111111111111111111111000 \
b010 ^
b1000 _
b1100011 `
b001 a
1b
b01 c
1d
1g
b11001 j
b1111111000000101100111001 k
b10111111110000000000000000011100 l
b00000000000000000000000011111100 n
b000000000000000000000000111111 q
b00000000000000000000000000000000 s
b00000000000000000000000011111100 {
1|
1"!
b00000000000000000000000011111100 #!
#35
0|
#36
1U
1V
b11111111111101011000010110010011 Y
b10111111110000000000000000010100 Z
b10111111110000000000000000011000 [
b11111111111111111111111111111111 \
b000 ^
b0000 _
b0010011 `
b000 a
b10 c
0d
0f
0g
b11111 i
b01011 j
b1111111111110101100001011 k
b10111111110000000000000000010100 l
b00000000000000000000000011111011 n
b000000000000000000000000111110 q
b11 r
b11111111111111111111111111111111 s
b00000000000000000000000011111011 {
1|
0"!
b00000000000000000000000011111011 #!
#37
b00000000000000000000000011111011 >
b00000000000000000000000011111010 n
b00000000000000000000000011111011 o
b10 r
b00000000000000000000000011111010 {
0|
b00000000000000000000000011111010 #!
#38
1T
0V
1W
1X
b00010000000001011000000000100011 Y
b10111111110000000000000000011000 Z
b10111111110000000000000000011100 [
b00000000000000000000000100000000 \
b001 ^
b0100011 `
0b
b00 c
1f
b00000 i
b00000 j
b0001000000000101100000000 k
b10111111110000000000000000011000 l
b00000000000000000000000111111011 n
b000000000000000000000001111110 q
b11 r
b00000000000000000000000100000000 s
0x
b00000000000000000000000000000100 z
b00000000000000000000000111111011 {
1|
b00000000000000000000000111111011 #!
#39
b000000000000000000000001111110 *
b01 2
1x
b00000000000000000000000000000000 z
0|
#40
0T
0U
0W
0X
b11111110000001011001110011100011 Y
b10111111110000000000000000011100 Z
b10111111110000000000000000100000 [
b11111111111111111111111111111000 \
b010 ^
b1000 _
b1100011 `
b001 a
1b
b01 c
1d
1g
b11001 j
b1111111000000101100111001 k
b10111111110000000000000000011100 l
b00000000000000000000000011111011 n
b000000000000000000000000111110 q
b00000000000000000000000000000000 s
b00000000000000000000000011111011 {
1|
1"!
b00000000000000000000000011111011 #!
#41
0|
#42
1U
1V
b11111111111101011000010110010011 Y
b10111111110000000000000000010100 Z
b10111111110000000000000000011000 [
b11111111111111111111111111111111 \
b000 ^
b0000 _
b0010011 `
b000 a
b10 c
0d
0f
0g
b11111 i
b01011 j
b1111111111110101100001011 k
b10111111110000000000000000010100 l
b00000000000000000000000011111010 n
b10 r
b11111111111111111111111111111111 s
b00000000000000000000000011111010 {
1|
0"!
b00000000000000000000000011111010 #!
#43
b00000000000000000000000011111010 >
b00000000000000000000000011111001 n
b00000000000000000000000011111010 o
b01 r
b00000000000000000000000011111001 {
0|
b00000000000000000000000011111001 #!
#44
1T
0V
1W
1X
b00010000000001011000000000100011 Y
b10111111110000000000000000011000 Z
b10111111110000000000000000011100 [
b00000000000000000000000100000000 \
b001 ^
b0100011 `
0b
b00 c
1f
b00000 i
b00000 j
b0001000000000101100000000 k
b10111111110000000000000000011000 l
b00000000000000000000000111111010 n
b000000000000000000000001111110 q
b10 r
b00000000000000000000000100000000 s
b00000000000000000000000111111010 {
1|
b00000000000000000000000111111010 #!
#45
b10 2
0|
#46
0T
0U
0W
0X
b11111110000001011001110011100011 Y
b10111111110000000000000000011100 Z
b10111111110000000000000000100000 [
b11111111111111111111111111111000 \
b010 ^
b1000 _
b1100011 `
b001 a
1b
b01 c
1d
1g
b11001 j
b1111111000000101100111001 k
b10111111110000000000000000011100 l
b00000000000000000000000011111010 n
b000000000000000000000000111110 q
b00000000000000000000000000000000 s
b00000000000000000000000011111010 {
1|
1"!
b00000000000000000000000011111010 #!
#47
0|
#48
1U
1V
b11111111111101011000010110010011 Y
b10111111110000000000000000010100 Z
b10111111110000000000000000011000 [
b11111111111111111111111111111111 \
b000 ^
b0000 _
b0010011 `
b000 a
b10 c
0d
0f
0g
b11111 i
b01011 j
b1111111111110101100001011 k
b10111111110000000000000000010100 l
b00000000000000000000000011111001 n
b01 r
b11111111111111111111111111111111 s
b00000000000000000000000011111001 {
1|
0"!
b00000000000000000000000011111001 #!
#49
b00000000000000000000000011111001 >
b00000000000000000000000011111000 n
b00000000000000000000000011111001 o
b00 r
b00000000000000000000000011111000 {
0|
b00000000000000000000000011111000 #!
#50
1T
0V
1W
1X
b00010000000001011000000000100011 Y
b10111111110000000000000000011000 Z
b10111111110000000000000000011100 [
b00000000000000000000000100000000 \
b001 ^
b0100011 `
0b
b00 c
1f
b00000 i
b00000 j
b0001000000000101100000000 k
b10111111110000000000000000011000 l
b00000000000000000000000111111001 n
b000000000000000000000001111110 q
b01 r
b00000000000000000000000100000000 s
b00000000000000000000000111111001 {
1|
b00000000000000000000000111111001 #!
#51
b11 2
0|
#52
0T
0U
0W
0X
b11111110000001011001110011100011 Y
b10111111110000000000000000011100 Z
b10111111110000000000000000100000 [
b11111111111111111111111111111000 \
b010 ^
b1000 _
b1100011 `
b001 a
1b
b01 c
1d
1g
b11001 j
b1111111000000101100111001 k
b10111111110000000000000000011100 l
b00000000000000000000000011111001 n
b000000000000000000000000111110 q
b00000000000000000000000000000000 s
b00000000000000000000000011111001 {
1|
1"!
b00000000000000000000000011111001 #!
#53
0|
#54
1U
1V
b11111111111101011000010110010011 Y
b10111111110000000000000000010100 Z
b10111111110000000000000000011000 [
b11111111111111111111111111111111 \
b000 ^
b0000 _
b0010011 `
b000 a
b10 c
0d
0f
0g
b11111 i
b01011 j
b1111111111110101100001011 k
b10111111110000000000000000010100 l
b00000000000000000000000011111000 n
b00 r
b11111111111111111111111111111111 s
b00000000000000000000000011111000 {
1|
0"!
b00000000000000000000000011111000 #!
#55
b00000000000000000000000011111000 >
b00000000000000000000000011110111 n
b00000000000000000000000011111000 o
b000000000000000000000000111101 q
b11 r
b00000000000000000000000011110111 {
0|
b00000000000000000000000011110111 #!
#56
1T
0V
1W
1X
b00010000000001011000000000100011 Y
b10111111110000000000000000011000 Z
b10111111110000000000000000011100 [
b00000000000000000000000100000000 \
b001 ^
b0100011 `
0b
b00 c
1f
b00000 i
b00000 j
b0001000000000101100000000 k
b10111111110000000000000000011000 l
b00000000000000000000000111111000 n
b000000000000000000000001111110 q
b00 r
b00000000000000000000000100000000 s
b00000000000000000000000111111000 {
1|
b00000000000000000000000111111000 #!
#57
b00 2
0|
#58
0T
0U
0W
0X
b11111110000001011001110011100011 Y
b10111111110000000000000000011100 Z
b10111111110000000000000000100000 [
b11111111111111111111111111111000 \
b010 ^
b1000 _
b1100011 `
b001 a
1b
b01 c
1d
1g
b11001 j
b1111111000000101100111001 k
b10111111110000000000000000011100 l
b00000000000000000000000011111000 n
b000000000000000000000000111110 q
b00000000000000000000000000000000 s
b00000000000000000000000011111000 {
1|
1"!
b00000000000000000000000011111000 #!
#59
0|
#60
1U
1V
b11111111111101011000010110010011 Y
b10111111110000000000000000010100 Z
b10111111110000000000000000011000 [
b11111111111111111111111111111111 \
b000 ^
b0000 _
b0010011 `
b000 a
b10 c
0d
0f
0g
b11111 i
b01011 j
b1111111111110101100001011 k
b10111111110000000000000000010100 l
b00000000000000000000000011110111 n
b000000000000000000000000111101 q
b11 r
b11111111111111111111111111111111 s
b00000000000000000000000011110111 {
1|
0"!
b00000000000000000000000011110111 #!
#61
b00000000000000000000000011110111 >
b00000000000000000000000011110110 n
b00000000000000000000000011110111 o
b10 r
b00000000000000000000000011110110 {
0|
b00000000000000000000000011110110 #!
#62
1T
0V
1W
1X
b00010000000001011000000000100011 Y
b10111111110000000000000000011000 Z
b10111111110000000000000000011100 [
b00000000000000000000000100000000 \
b001 ^
b0100011 `
0b
b00 c
1f
b00000 i
b00000 j
b0001000000000101100000000 k
b10111111110000000000000000011000 l
b00000000000000000000000111110111 n
b000000000000000000000001111101 q
b11 r
b00000000000000000000000100000000 s
0x
b00000000000000000000000000000100 z
b00000000000000000000000111110111 {
1|
b00000000000000000000000111110111 #!
#63
b000000000000000000000001111101 *
b01 2
1x
b00000000000000000000000000000000 z
0|
#64
0T
0U
0W
0X
b11111110000001011001110011100011 Y
b10111111110000000000000000011100 Z
b10111111110000000000000000100000 [
b11111111111111111111111111111000 \
b010 ^
b1000 _
b1100011 `
b001 a
1b
b01 c
1d
1g
b11001 j
b1111111000000101100111001 k
b10111111110000000000000000011100 l
b00000000000000000000000011110111 n
b000000000000000000000000111101 q
b00000000000000000000000000000000 s
b00000000000000000000000011110111 {
1|
1"!
b00000000000000000000000011110111 #!
#65
0|
#66
1U
1V
b11111111111101011000010110010011 Y
b10111111110000000000000000010100 Z
b10111111110000000000000000011000 [
b11111111111111111111111111111111 \
b000 ^
b0000 _
b0010011 `
b000 a
b10 c
0d
0f
0g
b11111 i
b01011 j
b1111111111110101100001011 k
b10111111110000000000000000010100 l
b00000000000000000000000011110110 n
b10 r
b11111111111111111111111111111111 s
b00000000000000000000000011110110 {
1|
0"!
b00000000000000000000000011110110 #!
#67
b00000000000000000000000011110110 >
b00000000000000000000000011110101 n
b00000000000000000000000011110110 o
b01 r
b00000000000000000000000011110101 {
0|
b00000000000000000000000011110101 #!
#68
1T
0V
1W
1X
b00010000000001011000000000100011 Y
b10111111110000000000000000011000 Z
b10111111110000000000000000011100 [
b00000000000000000000000100000000 \
b001 ^
b0100011 `
0b
b00 c
1f
b00000 i
b00000 j
b0001000000000101100000000 k
b10111111110000000000000000011000 l
b00000000000000000000000111110110 n
b000000000000000000000001111101 q
b10 r
b00000000000000000000000100000000 s
b00000000000000000000000111110110 {
1|
b00000000000000000000000111110110 #!
#69
b10 2
0|
#70
0T
0U
0W
0X
b11111110000001011001110011100011 Y
b10111111110000000000000000011100 Z
b10111111110000000000000000100000 [
b11111111111111111111111111111000 \
b010 ^
b1000 _
b1100011 `
b001 a
1b
b01 c
1d
1g
b11001 j
b1111111000000101100111001 k
b10111111110000000000000000011100 l
b00000000000000000000000011110110 n
b000000000000000000000000111101 q
b00000000000000000000000000000000 s
b00000000000000000000000011110110 {
1|
1"!
b00000000000000000000000011110110 #!
#71
0|
#72
1U
1V
b11111111111101011000010110010011 Y
b10111111110000000000000000010100 Z
b10111111110000000000000000011000 [
b11111111111111111111111111111111 \
b000 ^
b0000 _
b0010011 `
b000 a
b10 c
0d
0f
0g
b11111 i
b01011 j
b1111111111110101100001011 k
b10111111110000000000000000010100 l
b00000000000000000000000011110101 n
b01 r
b11111111111111111111111111111111 s
b00000000000000000000000011110101 {
1|
0"!
b00000000000000000000000011110101 #!
#73
b00000000000000000000000011110101 >
b00000000000000000000000011110100 n
b00000000000000000000000011110101 o
b00 r
b00000000000000000000000011110100 {
0|
b00000000000000000000000011110100 #!
