cpu_run_F1.vcd
$version Generated by VerilatedVcd $end
$timescale 1ps $end

 $scope module TOP $end
  $var wire 32 g a0_o [31:0] $end
  $var wire  1 d clk_i $end
  $var wire  1 e rst_i $end
  $var wire  1 f trigger_i $end
  $scope module cpu $end
   $var wire 32 k DATA_WIDTH [31:0] $end
   $var wire  1 E JALR_instr $end
   $var wire  1 h JB_instr $end
   $var wire 32 g a0_o [31:0] $end
   $var wire  4 P alu_control [3:0] $end
   $var wire 32 _ alu_out [31:0] $end
   $var wire  1 G alu_src $end
   $var wire  1 I byte_address $end
   $var wire  1 d clk_i $end
   $var wire 32 M imm_ext [31:0] $end
   $var wire  3 O imm_src [2:0] $end
   $var wire 32 J instr [31:0] $end
   $var wire  1 F mem_write $end
   $var wire 32 L pc_plus_4 [31:0] $end
   $var wire 32 K pc_var [31:0] $end
   $var wire  1 H reg_write $end
   $var wire  2 N result_src [1:0] $end
   $var wire  1 e rst_i $end
   $var wire  1 f trigger_i $end
   $var wire  1 ^ zero $end
   $scope module controlUnit_top $end
    $var wire  1 E JALR_instr_o $end
    $var wire  1 h JB_instr_o $end
    $var wire  4 P alu_control_o [3:0] $end
    $var wire  2 T alu_op [1:0] $end
    $var wire  1 G alu_src_o $end
    $var wire  1 U branch $end
    $var wire  1 I byte_address_o $end
    $var wire  3 R funct3_i [2:0] $end
    $var wire  1 S funct7_5_i $end
    $var wire  3 O imm_src_o [2:0] $end
    $var wire  1 V jmp $end
    $var wire  1 F mem_write_o $end
    $var wire  7 Q op_i [6:0] $end
    $var wire  1 H reg_write_o $end
    $var wire  2 N result_src_o [1:0] $end
    $var wire  1 ^ zero_i $end
    $scope module aluDecoder $end
     $var wire  4 P alu_control_o [3:0] $end
     $var wire  2 T alu_op_i [1:0] $end
     $var wire  1 I byte_address_o $end
     $var wire  3 R funct3_i [2:0] $end
     $var wire  1 S funct7_b5_i $end
     $var wire  1 W op_5_i $end
     $var wire  1 X rTypeSub $end
    $upscope $end
    $scope module mainDecoder $end
     $var wire  1 E JALR_o $end
     $var wire  2 T alu_op_o [1:0] $end
     $var wire  1 G alu_src_o $end
     $var wire  1 U branch_o $end
     $var wire  3 O imm_src_o [2:0] $end
     $var wire  1 V jump_o $end
     $var wire  1 F mem_write_o $end
     $var wire  7 Q op_i [6:0] $end
     $var wire  1 H reg_write_o $end
     $var wire  2 N result_src_o [1:0] $end
    $upscope $end
   $upscope $end
   $scope module datapath $end
    $var wire 32 m BYTE_WIDTH [31:0] $end
    $var wire 32 k DATA_WIDTH [31:0] $end
    $var wire 32 l REG_ADDR_LENGTH [31:0] $end
    $var wire 32 g a0_o [31:0] $end
    $var wire  4 P alu_control_i [3:0] $end
    $var wire 32 _ alu_out_o [31:0] $end
    $var wire  1 G alu_src_i $end
    $var wire  1 d clk_i $end
    $var wire  1 I data_mem_byte_op_i $end
    $var wire 32 i data_mem_rd [31:0] $end
    $var wire  1 F data_mem_we_i $end
    $var wire  1 ^ eq_o $end
    $var wire 32 M imm_ext_i [31:0] $end
    $var wire 32 L pc_next_i [31:0] $end
    $var wire  5 Y reg_addr1_i [4:0] $end
    $var wire  5 Z reg_addr2_i [4:0] $end
    $var wire  5 [ reg_addr3_i [4:0] $end
    $var wire 32 ` reg_rd1 [31:0] $end
    $var wire 32 a reg_rd2 [31:0] $end
    $var wire 32 j reg_wd [31:0] $end
    $var wire  1 H reg_we_i $end
    $var wire  2 N result_src_i [1:0] $end
    $var wire  1 f trigger_i $end
    $scope module datapath_alu $end
     $var wire 32 k DATA_WIDTH [31:0] $end
     $var wire  4 P alu_control_i [3:0] $end
     $var wire 32 _ alu_result_o [31:0] $end
     $var wire  1 ^ eq_o $end
     $var wire 32 ` src1_i [31:0] $end
     $var wire 32 b src2_i [31:0] $end
    $upscope $end
    $scope module datapath_data_memory $end
     $var wire 32 m BYTE_WIDTH [31:0] $end
     $var wire 32 k DATA_WIDTH [31:0] $end
     $var wire 32 o END_ADDRESS [31:0] $end
     $var wire 32 n START_ADDRESS [31:0] $end
     $var wire 32 c addr [31:0] $end
     $var wire 32 _ addr_i [31:0] $end
     $var wire  1 I byte_op_i $end
     $var wire  1 d clk_i $end
     $var wire 32 i rd_o [31:0] $end
     $var wire 32 a wd_i [31:0] $end
     $var wire  1 F we_i $end
     $scope module unnamedblk1 $end
      $var wire 32 # i [31:0] $end
     $upscope $end
    $upscope $end
    $scope module datapath_register_file $end
     $var wire 32 l ADDRESS_WIDTH [31:0] $end
     $var wire 32 k DATA_WIDTH [31:0] $end
     $var wire 32 g a0_o [31:0] $end
     $var wire  5 Y addr1_i [4:0] $end
     $var wire  5 Z addr2_i [4:0] $end
     $var wire  5 [ addr3_i [4:0] $end
     $var wire 32 j addr3_wd_i [31:0] $end
     $var wire  1 H addr3_we_i $end
     $var wire  1 d clk_i $end
     $var wire 32 ` rd1_o [31:0] $end
     $var wire 32 a rd2_o [31:0] $end
     $var wire 32 % rf[0] [31:0] $end
     $var wire 32 / rf[10] [31:0] $end
     $var wire 32 0 rf[11] [31:0] $end
     $var wire 32 1 rf[12] [31:0] $end
     $var wire 32 2 rf[13] [31:0] $end
     $var wire 32 3 rf[14] [31:0] $end
     $var wire 32 4 rf[15] [31:0] $end
     $var wire 32 5 rf[16] [31:0] $end
     $var wire 32 6 rf[17] [31:0] $end
     $var wire 32 7 rf[18] [31:0] $end
     $var wire 32 8 rf[19] [31:0] $end
     $var wire 32 & rf[1] [31:0] $end
     $var wire 32 9 rf[20] [31:0] $end
     $var wire 32 : rf[21] [31:0] $end
     $var wire 32 ; rf[22] [31:0] $end
     $var wire 32 < rf[23] [31:0] $end
     $var wire 32 = rf[24] [31:0] $end
     $var wire 32 > rf[25] [31:0] $end
     $var wire 32 ? rf[26] [31:0] $end
     $var wire 32 @ rf[27] [31:0] $end
     $var wire 32 A rf[28] [31:0] $end
     $var wire 32 B rf[29] [31:0] $end
     $var wire 32 ' rf[2] [31:0] $end
     $var wire 32 C rf[30] [31:0] $end
     $var wire 32 D rf[31] [31:0] $end
     $var wire 32 ( rf[3] [31:0] $end
     $var wire 32 ) rf[4] [31:0] $end
     $var wire 32 * rf[5] [31:0] $end
     $var wire 32 + rf[6] [31:0] $end
     $var wire 32 , rf[7] [31:0] $end
     $var wire 32 - rf[8] [31:0] $end
     $var wire 32 . rf[9] [31:0] $end
     $var wire  1 f trigger_i $end
     $scope module unnamedblk1 $end
      $var wire 32 $ i [31:0] $end
     $upscope $end
    $upscope $end
   $upscope $end
   $scope module extend_unit $end
    $var wire 32 k DATA_WIDTH [31:0] $end
    $var wire 32 M imm_ext_o [31:0] $end
    $var wire  3 O imm_src_i [2:0] $end
    $var wire 25 \ instr_i [31:7] $end
   $upscope $end
   $scope module instruction_memory $end
    $var wire 32 m BYTE_SIZE [31:0] $end
    $var wire 32 k DATA_WIDTH [31:0] $end
    $var wire 32 p FIRST_INSTR_ADDR [31:0] $end
    $var wire 32 q LAST_INSTR_ADDR [31:0] $end
    $var wire 32 ] addr [31:0] $end
    $var wire 32 K addr_i [31:0] $end
    $var wire 32 J instr_o [31:0] $end
   $upscope $end
   $scope module program_counter $end
    $var wire 32 k PC_WIDTH [31:0] $end
    $var wire  1 d clk_i $end
    $var wire 32 M imm_ext_i [31:0] $end
    $var wire  1 E jalr_instr_i $end
    $var wire 32 _ jta_jalr_i [31:0] $end
    $var wire  1 h jump_taken_i $end
    $var wire 32 K pc_next [31:0] $end
    $var wire 32 K pc_o [31:0] $end
    $var wire 32 L pc_plus4_o [31:0] $end
    $var wire  1 e rst_i $end
   $upscope $end
  $upscope $end
 $upscope $end
$enddefinitions $end


#0
b00000000000000000000000000000000 #
b00000000000000000000000000000000 $
b00000000000000000000000000000000 %
b00000000000000000000000000000000 &
b00000000000000000000000000000000 '
b00000000000000000000000000000000 (
b00000000000000000000000000000000 )
b00000000000000000000000000000000 *
b00000000000000000000000000000000 +
b00000000000000000000000000000000 ,
b00000000000000000000000000000000 -
b00000000000000000000000000000000 .
b00000000000000000000000000000000 /
b00000000000000000000000000000000 0
b00000000000000000000000000000000 1
b00000000000000000000000000000000 2
b00000000000000000000000000000000 3
b00000000000000000000000000000000 4
b00000000000000000000000000000000 5
b00000000000000000000000000000000 6
b00000000000000000000000000000000 7
b00000000000000000000000000000000 8
b00000000000000000000000000000000 9
b00000000000000000000000000000000 :
b00000000000000000000000000000000 ;
b00000000000000000000000000000000 <
b00000000000000000000000000000000 =
b00000000000000000000000000000000 >
b00000000000000000000000000000000 ?
b00000000000000000000000000000000 @
b00000000000000000000000000000000 A
b00000000000000000000000000000000 B
b00000000000000000000000000000000 C
b00000000000000000000000000000000 D
0E
0F
0G
0H
0I
b00000000000000000000000000000000 J
b00000000000000000000000000000000 K
b00000000000000000000000000000100 L
b00000000000000000000000000000000 M
b00 N
b000 O
b0000 P
b0000000 Q
b000 R
0S
b00 T
0U
0V
0W
0X
b00000 Y
b00000 Z
b00000 [
b0000000000000000000000000 \
b00000000000000000000000000000000 ]
1^
b00000000000000000000000000000000 _
b00000000000000000000000000000000 `
b00000000000000000000000000000000 a
b00000000000000000000000000000000 b
b00000000000000000000000000000000 c
1d
1e
0f
b00000000000000000000000000000000 g
0h
b00000000000000000000000000000000 i
b00000000000000000000000000000000 j
b00000000000000000000000000100000 k
b00000000000000000000000000000101 l
b00000000000000000000000000001000 m
b00000000000000010000000000000000 n
b00000000000000011111111111111111 o
b10111111110000000000000000000000 p
b10111111110000000000111111111111 q
#1
b00000000000000010000000000000000 #
b00000000000000000000000000100000 $
b00000000000001011001010001100011 J
b10111111110000000000000000000000 K
b10111111110000000000000000000100 L
b00000000000000000000000000001000 M
b010 O
b1000 P
b1100011 Q
b001 R
b01 T
1U
1W
b01011 Y
b01000 [
b0000000000000101100101000 \
b10111111110000000000000000000000 ]
0d
#2
1d
1f
#3
b00000000000000000000000000000001 8
0d
#4
1d
#5
0d
#6
1d
#7
0d
#8
1d
#9
0d
#10
1d
0e
#11
0d
#12
1G
1H
b00000000111100000000010110010011 J
b10111111110000000000000000000100 K
b10111111110000000000000000001000 L
b00000000000000000000000000001111 M
b000 O
b0000 P
b0010011 Q
b000 R
b10 T
0U
0W
b00000 Y
b01111 Z
b01011 [
b0000000011110000000001011 \
b10111111110000000000000000000100 ]
0^
b00000000000000000000000000001111 _
b00000000000000000000000000001111 b
b00000000000000000000000000001100 c
1d
b00000000000000000000000000001111 j
#13
b00000000000000000000000000001111 0
0d
#14
b00001111111100000000010000010011 J
b10111111110000000000000000001000 K
b10111111110000000000000000001100 L
b00000000000000000000000011111111 M
b11111 Z
b01000 [
b0000111111110000000001000 \
b10111111110000000000000000001000 ]
b00000000000000000000000011111111 _
b00000000000000000000000011111111 b
b00000000000000000000000011111100 c
1d
b00000000000000000000000011111111 j
#15
b00000000000000000000000011111111 -
0d
#16
b00000000111100000000010010010011 J
b10111111110000000000000000001100 K
b10111111110000000000000000010000 L
b00000000000000000000000000001111 M
b01111 Z
b01001 [
b0000000011110000000001001 \
b10111111110000000000000000001100 ]
b00000000000000000000000000001111 _
b00000000000000000000000000001111 b
b00000000000000000000000000001100 c
1d
b00000000000000000000000000001111 j
#17
b00000000000000000000000000001111 .
0d
#18
b00000000000100000000100100010011 J
b10111111110000000000000000010000 K
b10111111110000000000000000010100 L
b00000000000000000000000000000001 M
b00001 Z
b10010 [
b0000000000010000000010010 \
b10111111110000000000000000010000 ]
b00000000000000000000000000000001 _
b00000000000000000000000000000001 b
b00000000000000000000000000000000 c
1d
b00000000000000000000000000000001 j
#19
b00000000000000000000000000000001 7
0d
#20
b00000000000100000000001010010011 J
b10111111110000000000000000010100 K
b10111111110000000000000000011000 L
b00101 [
b0000000000010000000000101 \
b10111111110000000000000000010100 ]
1d
#21
b00000000000000000000000000000001 *
0d
#22
b00000000000100000000001100010011 J
b10111111110000000000000000011000 K
b10111111110000000000000000011100 L
b00110 [
b0000000000010000000000110 \
b10111111110000000000000000011000 ]
1d
#23
b00000000000000000000000000000001 +
0d
#24
b00000000000000000000001110010011 J
b10111111110000000000000000011100 K
b10111111110000000000000000100000 L
b00000000000000000000000000000000 M
b00000 Z
b00111 [
b0000000000000000000000111 \
b10111111110000000000000000011100 ]
1^
b00000000000000000000000000000000 _
b00000000000000000000000000000000 b
1d
b00000000000000000000000000000000 j
#25
0d
#26
0G
b00000000000000000000010100110011 J
b10111111110000000000000000100000 K
b10111111110000000000000000100100 L
b0110011 Q
1W
b01010 [
b0000000000000000000001010 \
b10111111110000000000000000100000 ]
1d
#27
0d
#28
0H
b00000001001010011001000001100011 J
b10111111110000000000000000100100 K
b10111111110000000000000000101000 L
b010 O
b1000 P
b1100011 Q
b001 R
b01 T
1U
b10011 Y
b10010 Z
b00000 [
b0000000100101001100100000 \
b10111111110000000000000000100100 ]
b00000000000000000000000000000001 `
b00000000000000000000000000000001 a
b00000000000000000000000000000001 b
1d
#29
0d
#30
1H
1I
b00000001010000000000000011101111 J
b10111111110000000000000000101000 K
b10111111110000000000000000101100 L
b00000000000000000000000000010100 M
b10 N
b011 O
b0000 P
b1101111 Q
b000 R
b00 T
0U
1V
b00000 Y
b10100 Z
b00001 [
b0000000101000000000000001 \
b10111111110000000000000000101000 ]
b00000000000000000000000000000000 `
b00000000000000000000000000000000 a
b00000000000000000000000000000000 b
1d
1h
b10111111110000000000000000101100 j
#31
b10111111110000000000000000101100 &
0d
#32
1G
0I
b00000000000100110000001100010011 J
b10111111110000000000000000111100 K
b10111111110000000000000001000000 L
b00000000000000000000000000000001 M
b00 N
b000 O
b0010011 Q
b10 T
0V
0W
b00110 Y
b00001 Z
b00110 [
b0000000000010011000000110 \
b10111111110000000000000000111100 ]
b00000000000000000000000000000010 _
b00000000000000000000000000000001 `
b10111111110000000000000000101100 a
b00000000000000000000000000000001 b
1d
0h
b00000000000000000000000000000010 j
#33
b00000000000000000000000000000010 +
0^
b00000000000000000000000000000011 _
b00000000000000000000000000000010 `
0d
b00000000000000000000000000000011 j
#34
0G
0H
b11111110100100110001111011100011 J
b10111111110000000000000001000000 K
b10111111110000000000000001000100 L
b11111111111111111111111111111100 M
b010 O
b1000 P
b1100011 Q
b001 R
1S
b01 T
1U
1W
1X
b01001 Z
b11101 [
b1111111010010011000111101 \
b10111111110000000000000001000000 ]
b11111111111111111111111111110011 _
b00000000000000000000000000001111 a
b00000000000000000000000000001111 b
b11111111111111111111111111110000 c
1d
1h
b01001101011000101001011001011100 i
b11111111111111111111111111110011 j
#35
0d
#36
1G
1H
b00000000000100110000001100010011 J
b10111111110000000000000000111100 K
b10111111110000000000000001000000 L
b00000000000000000000000000000001 M
b000 O
b0000 P
b0010011 Q
b000 R
0S
b10 T
0U
0W
0X
b00001 Z
b00110 [
b0000000000010011000000110 \
b10111111110000000000000000111100 ]
b00000000000000000000000000000011 _
b10111111110000000000000000101100 a
b00000000000000000000000000000001 b
b00000000000000000000000000000000 c
1d
0h
b00000000000000000000000000000000 i
b00000000000000000000000000000011 j
#37
b00000000000000000000000000000011 +
b00000000000000000000000000000100 _
b00000000000000000000000000000011 `
b00000000000000000000000000000100 c
0d
b00000000000000000000000000000100 j
#38
0G
0H
b11111110100100110001111011100011 J
b10111111110000000000000001000000 K
b10111111110000000000000001000100 L
b11111111111111111111111111111100 M
b010 O
b1000 P
b1100011 Q
b001 R
1S
b01 T
1U
1W
1X
b01001 Z
b11101 [
b1111111010010011000111101 \
b10111111110000000000000001000000 ]
b11111111111111111111111111110100 _
b00000000000000000000000000001111 a
b00000000000000000000000000001111 b
b11111111111111111111111111110100 c
1d
1h
b01001001100000110101001100110000 i
b11111111111111111111111111110100 j
#39
0d
#40
1G
1H
b00000000000100110000001100010011 J
b10111111110000000000000000111100 K
b10111111110000000000000001000000 L
b00000000000000000000000000000001 M
b000 O
b0000 P
b0010011 Q
b000 R
0S
b10 T
0U
0W
0X
b00001 Z
b00110 [
b0000000000010011000000110 \
b10111111110000000000000000111100 ]
b00000000000000000000000000000100 _
b10111111110000000000000000101100 a
b00000000000000000000000000000001 b
b00000000000000000000000000000100 c
1d
0h
b00000000000000000000000000000000 i
b00000000000000000000000000000100 j
#41
b00000000000000000000000000000100 +
b00000000000000000000000000000101 _
b00000000000000000000000000000100 `
0d
b00000000000000000000000000000101 j
#42
0G
0H
b11111110100100110001111011100011 J
b10111111110000000000000001000000 K
b10111111110000000000000001000100 L
b11111111111111111111111111111100 M
b010 O
b1000 P
b1100011 Q
b001 R
1S
b01 T
1U
1W
1X
b01001 Z
b11101 [
b1111111010010011000111101 \
b10111111110000000000000001000000 ]
b11111111111111111111111111110101 _
b00000000000000000000000000001111 a
b00000000000000000000000000001111 b
b11111111111111111111111111110100 c
1d
1h
b01001001100000110101001100110000 i
b11111111111111111111111111110101 j
#43
0d
#44
1G
1H
b00000000000100110000001100010011 J
b10111111110000000000000000111100 K
b10111111110000000000000001000000 L
b00000000000000000000000000000001 M
b000 O
b0000 P
b0010011 Q
b000 R
0S
b10 T
0U
0W
0X
b00001 Z
b00110 [
b0000000000010011000000110 \
b10111111110000000000000000111100 ]
b00000000000000000000000000000101 _
b10111111110000000000000000101100 a
b00000000000000000000000000000001 b
b00000000000000000000000000000100 c
1d
0h
b00000000000000000000000000000000 i
b00000000000000000000000000000101 j
#45
b00000000000000000000000000000101 +
b00000000000000000000000000000110 _
b00000000000000000000000000000101 `
0d
b00000000000000000000000000000110 j
#46
0G
0H
b11111110100100110001111011100011 J
b10111111110000000000000001000000 K
b10111111110000000000000001000100 L
b11111111111111111111111111111100 M
b010 O
b1000 P
b1100011 Q
b001 R
1S
b01 T
1U
1W
1X
b01001 Z
b11101 [
b1111111010010011000111101 \
b10111111110000000000000001000000 ]
b11111111111111111111111111110110 _
b00000000000000000000000000001111 a
b00000000000000000000000000001111 b
b11111111111111111111111111110100 c
1d
1h
b01001001100000110101001100110000 i
b11111111111111111111111111110110 j
#47
0d
#48
1G
1H
b00000000000100110000001100010011 J
b10111111110000000000000000111100 K
b10111111110000000000000001000000 L
b00000000000000000000000000000001 M
b000 O
b0000 P
b0010011 Q
b000 R
0S
b10 T
0U
0W
0X
b00001 Z
b00110 [
b0000000000010011000000110 \
b10111111110000000000000000111100 ]
b00000000000000000000000000000110 _
b10111111110000000000000000101100 a
b00000000000000000000000000000001 b
b00000000000000000000000000000100 c
1d
0h
b00000000000000000000000000000000 i
b00000000000000000000000000000110 j
#49
b00000000000000000000000000000110 +
b00000000000000000000000000000111 _
b00000000000000000000000000000110 `
0d
b00000000000000000000000000000111 j
#50
0G
0H
b11111110100100110001111011100011 J
b10111111110000000000000001000000 K
b10111111110000000000000001000100 L
b11111111111111111111111111111100 M
b010 O
b1000 P
b1100011 Q
b001 R
1S
b01 T
1U
1W
1X
b01001 Z
b11101 [
b1111111010010011000111101 \
b10111111110000000000000001000000 ]
b11111111111111111111111111110111 _
b00000000000000000000000000001111 a
b00000000000000000000000000001111 b
b11111111111111111111111111110100 c
1d
1h
b01001001100000110101001100110000 i
b11111111111111111111111111110111 j
#51
0d
#52
1G
1H
b00000000000100110000001100010011 J
b10111111110000000000000000111100 K
b10111111110000000000000001000000 L
b00000000000000000000000000000001 M
b000 O
b0000 P
b0010011 Q
b000 R
0S
b10 T
0U
0W
0X
b00001 Z
b00110 [
b0000000000010011000000110 \
b10111111110000000000000000111100 ]
b00000000000000000000000000000111 _
b10111111110000000000000000101100 a
b00000000000000000000000000000001 b
b00000000000000000000000000000100 c
1d
0h
b00000000000000000000000000000000 i
b00000000000000000000000000000111 j
#53
b00000000000000000000000000000111 +
b00000000000000000000000000001000 _
b00000000000000000000000000000111 `
b00000000000000000000000000001000 c
0d
b00000000000000000000000000001000 j
#54
0G
0H
b11111110100100110001111011100011 J
b10111111110000000000000001000000 K
b10111111110000000000000001000100 L
b11111111111111111111111111111100 M
b010 O
b1000 P
b1100011 Q
b001 R
1S
b01 T
1U
1W
1X
b01001 Z
b11101 [
b1111111010010011000111101 \
b10111111110000000000000001000000 ]
b11111111111111111111111111111000 _
b00000000000000000000000000001111 a
b00000000000000000000000000001111 b
b11111111111111111111111111111000 c
1d
1h
b01010110010110001000000110000011 i
b11111111111111111111111111111000 j
#55
0d
#56
1G
1H
b00000000000100110000001100010011 J
b10111111110000000000000000111100 K
b10111111110000000000000001000000 L
b00000000000000000000000000000001 M
b000 O
b0000 P
b0010011 Q
b000 R
0S
b10 T
0U
0W
0X
b00001 Z
b00110 [
b0000000000010011000000110 \
b10111111110000000000000000111100 ]
b00000000000000000000000000001000 _
b10111111110000000000000000101100 a
b00000000000000000000000000000001 b
b00000000000000000000000000001000 c
1d
0h
b00000000000000000000000000000000 i
b00000000000000000000000000001000 j
#57
b00000000000000000000000000001000 +
b00000000000000000000000000001001 _
b00000000000000000000000000001000 `
0d
b00000000000000000000000000001001 j
#58
0G
0H
b11111110100100110001111011100011 J
b10111111110000000000000001000000 K
b10111111110000000000000001000100 L
b11111111111111111111111111111100 M
b010 O
b1000 P
b1100011 Q
b001 R
1S
b01 T
1U
1W
1X
b01001 Z
b11101 [
b1111111010010011000111101 \
b10111111110000000000000001000000 ]
b11111111111111111111111111111001 _
b00000000000000000000000000001111 a
b00000000000000000000000000001111 b
b11111111111111111111111111111000 c
1d
1h
b01010110010110001000000110000011 i
b11111111111111111111111111111001 j
#59
0d
#60
1G
1H
b00000000000100110000001100010011 J
b10111111110000000000000000111100 K
b10111111110000000000000001000000 L
b00000000000000000000000000000001 M
b000 O
b0000 P
b0010011 Q
b000 R
0S
b10 T
0U
0W
0X
b00001 Z
b00110 [
b0000000000010011000000110 \
b10111111110000000000000000111100 ]
b00000000000000000000000000001001 _
b10111111110000000000000000101100 a
b00000000000000000000000000000001 b
b00000000000000000000000000001000 c
1d
0h
b00000000000000000000000000000000 i
b00000000000000000000000000001001 j
#61
b00000000000000000000000000001001 +
b00000000000000000000000000001010 _
b00000000000000000000000000001001 `
0d
b00000000000000000000000000001010 j
#62
0G
0H
b11111110100100110001111011100011 J
b10111111110000000000000001000000 K
b10111111110000000000000001000100 L
b11111111111111111111111111111100 M
b010 O
b1000 P
b1100011 Q
b001 R
1S
b01 T
1U
1W
1X
b01001 Z
b11101 [
b1111111010010011000111101 \
b10111111110000000000000001000000 ]
b11111111111111111111111111111010 _
b00000000000000000000000000001111 a
b00000000000000000000000000001111 b
b11111111111111111111111111111000 c
1d
1h
b01010110010110001000000110000011 i
b11111111111111111111111111111010 j
#63
0d
#64
1G
1H
b00000000000100110000001100010011 J
b10111111110000000000000000111100 K
b10111111110000000000000001000000 L
b00000000000000000000000000000001 M
b000 O
b0000 P
b0010011 Q
b000 R
0S
b10 T
0U
0W
0X
b00001 Z
b00110 [
b0000000000010011000000110 \
b10111111110000000000000000111100 ]
b00000000000000000000000000001010 _
b10111111110000000000000000101100 a
b00000000000000000000000000000001 b
b00000000000000000000000000001000 c
1d
0h
b00000000000000000000000000000000 i
b00000000000000000000000000001010 j
#65
b00000000000000000000000000001010 +
b00000000000000000000000000001011 _
b00000000000000000000000000001010 `
0d
b00000000000000000000000000001011 j
#66
0G
0H
b11111110100100110001111011100011 J
b10111111110000000000000001000000 K
b10111111110000000000000001000100 L
b11111111111111111111111111111100 M
b010 O
b1000 P
b1100011 Q
b001 R
1S
b01 T
1U
1W
1X
b01001 Z
b11101 [
b1111111010010011000111101 \
b10111111110000000000000001000000 ]
b11111111111111111111111111111011 _
b00000000000000000000000000001111 a
b00000000000000000000000000001111 b
b11111111111111111111111111111000 c
1d
1h
b01010110010110001000000110000011 i
b11111111111111111111111111111011 j
#67
0d
#68
1G
1H
b00000000000100110000001100010011 J
b10111111110000000000000000111100 K
b10111111110000000000000001000000 L
b00000000000000000000000000000001 M
b000 O
b0000 P
b0010011 Q
b000 R
0S
b10 T
0U
0W
0X
b00001 Z
b00110 [
b0000000000010011000000110 \
b10111111110000000000000000111100 ]
b00000000000000000000000000001011 _
b10111111110000000000000000101100 a
b00000000000000000000000000000001 b
b00000000000000000000000000001000 c
1d
0h
b00000000000000000000000000000000 i
b00000000000000000000000000001011 j
#69
b00000000000000000000000000001011 +
b00000000000000000000000000001100 _
b00000000000000000000000000001011 `
b00000000000000000000000000001100 c
0d
b00000000000000000000000000001100 j
#70
0G
0H
b11111110100100110001111011100011 J
b10111111110000000000000001000000 K
b10111111110000000000000001000100 L
b11111111111111111111111111111100 M
b010 O
b1000 P
b1100011 Q
b001 R
1S
b01 T
1U
1W
1X
b01001 Z
b11101 [
b1111111010010011000111101 \
b10111111110000000000000001000000 ]
b11111111111111111111111111111100 _
b00000000000000000000000000001111 a
b00000000000000000000000000001111 b
b11111111111111111111111111111100 c
1d
1h
b01100111010111000110001110001010 i
b11111111111111111111111111111100 j
#71
0d
#72
1G
1H
b00000000000100110000001100010011 J
b10111111110000000000000000111100 K
b10111111110000000000000001000000 L
b00000000000000000000000000000001 M
b000 O
b0000 P
b0010011 Q
b000 R
0S
b10 T
0U
0W
0X
b00001 Z
b00110 [
b0000000000010011000000110 \
b10111111110000000000000000111100 ]
b00000000000000000000000000001100 _
b10111111110000000000000000101100 a
b00000000000000000000000000000001 b
b00000000000000000000000000001100 c
1d
0h
b00000000000000000000000000000000 i
b00000000000000000000000000001100 j
#73
b00000000000000000000000000001100 +
b00000000000000000000000000001101 _
b00000000000000000000000000001100 `
0d
b00000000000000000000000000001101 j
#74
0G
0H
b11111110100100110001111011100011 J
b10111111110000000000000001000000 K
b10111111110000000000000001000100 L
b11111111111111111111111111111100 M
b010 O
b1000 P
b1100011 Q
b001 R
1S
b01 T
1U
1W
1X
b01001 Z
b11101 [
b1111111010010011000111101 \
b10111111110000000000000001000000 ]
b11111111111111111111111111111101 _
b00000000000000000000000000001111 a
b00000000000000000000000000001111 b
b11111111111111111111111111111100 c
1d
1h
b01100111010111000110001110001010 i
b11111111111111111111111111111101 j
#75
0d
#76
1G
1H
b00000000000100110000001100010011 J
b10111111110000000000000000111100 K
b10111111110000000000000001000000 L
b00000000000000000000000000000001 M
b000 O
b0000 P
b0010011 Q
b000 R
0S
b10 T
0U
0W
0X
b00001 Z
b00110 [
b0000000000010011000000110 \
b10111111110000000000000000111100 ]
b00000000000000000000000000001101 _
b10111111110000000000000000101100 a
b00000000000000000000000000000001 b
b00000000000000000000000000001100 c
1d
0h
b00000000000000000000000000000000 i
b00000000000000000000000000001101 j
#77
b00000000000000000000000000001101 +
b00000000000000000000000000001110 _
b00000000000000000000000000001101 `
0d
b00000000000000000000000000001110 j
#78
0G
0H
b11111110100100110001111011100011 J
b10111111110000000000000001000000 K
b10111111110000000000000001000100 L
b11111111111111111111111111111100 M
b010 O
b1000 P
b1100011 Q
b001 R
1S
b01 T
1U
1W
1X
b01001 Z
b11101 [
b1111111010010011000111101 \
b10111111110000000000000001000000 ]
b11111111111111111111111111111110 _
b00000000000000000000000000001111 a
b00000000000000000000000000001111 b
b11111111111111111111111111111100 c
1d
1h
b01100111010111000110001110001010 i
b11111111111111111111111111111110 j
#79
0d
#80
1G
1H
b00000000000100110000001100010011 J
b10111111110000000000000000111100 K
b10111111110000000000000001000000 L
b00000000000000000000000000000001 M
b000 O
b0000 P
b0010011 Q
b000 R
0S
b10 T
0U
0W
0X
b00001 Z
b00110 [
b0000000000010011000000110 \
b10111111110000000000000000111100 ]
b00000000000000000000000000001110 _
b10111111110000000000000000101100 a
b00000000000000000000000000000001 b
b00000000000000000000000000001100 c
1d
0h
b00000000000000000000000000000000 i
b00000000000000000000000000001110 j
#81
b00000000000000000000000000001110 +
b00000000000000000000000000001111 _
b00000000000000000000000000001110 `
0d
b00000000000000000000000000001111 j
#82
0G
0H
b11111110100100110001111011100011 J
b10111111110000000000000001000000 K
b10111111110000000000000001000100 L
b11111111111111111111111111111100 M
b010 O
b1000 P
b1100011 Q
b001 R
1S
b01 T
1U
1W
1X
b01001 Z
b11101 [
b1111111010010011000111101 \
b10111111110000000000000001000000 ]
b11111111111111111111111111111111 _
b00000000000000000000000000001111 a
b00000000000000000000000000001111 b
b11111111111111111111111111111100 c
1d
1h
b01100111010111000110001110001010 i
b11111111111111111111111111111111 j
#83
0d
#84
1G
1H
b00000000000100110000001100010011 J
b10111111110000000000000000111100 K
b10111111110000000000000001000000 L
b00000000000000000000000000000001 M
b000 O
b0000 P
b0010011 Q
b000 R
0S
b10 T
0U
0W
0X
b00001 Z
b00110 [
b0000000000010011000000110 \
b10111111110000000000000000111100 ]
b00000000000000000000000000001111 _
b10111111110000000000000000101100 a
b00000000000000000000000000000001 b
b00000000000000000000000000001100 c
1d
0h
b00000000000000000000000000000000 i
b00000000000000000000000000001111 j
#85
b00000000000000000000000000001111 +
b00000000000000000000000000010000 _
b00000000000000000000000000001111 `
b00000000000000000000000000010000 c
0d
b00000000000000000000000000010000 j
#86
0G
0H
b11111110100100110001111011100011 J
b10111111110000000000000001000000 K
b10111111110000000000000001000100 L
b11111111111111111111111111111100 M
b010 O
b1000 P
b1100011 Q
b001 R
1S
b01 T
1U
1W
1X
b01001 Z
b11101 [
b1111111010010011000111101 \
b10111111110000000000000001000000 ]
1^
b00000000000000000000000000000000 _
b00000000000000000000000000001111 a
b00000000000000000000000000001111 b
b00000000000000000000000000000000 c
1d
b00000000000000000000000000000000 j
#87
0d
#88
1G
1H
b00000000000000000000001100010011 J
b10111111110000000000000001000100 K
b10111111110000000000000001001000 L
b00000000000000000000000000000000 M
b000 O
b0000 P
b0010011 Q
b000 R
0S
b10 T
0U
0W
0X
b00000 Y
b00000 Z
b00110 [
b0000000000000000000000110 \
b10111111110000000000000001000100 ]
b00000000000000000000000000000000 `
b00000000000000000000000000000000 a
b00000000000000000000000000000000 b
1d
#89
b00000000000000000000000000000000 +
0d
