cpu_run_F1.vcd
$version Generated by VerilatedVcd $end
$timescale 1ps $end

 $scope module TOP $end
  $var wire 32 g a0_o [31:0] $end
  $var wire  1 d clk_i $end
  $var wire  1 e rst_i $end
  $var wire  1 f trigger_i $end
  $scope module cpu $end
   $var wire 32 k DATA_WIDTH [31:0] $end
   $var wire  1 E JALR_instr $end
   $var wire  1 h JB_instr $end
   $var wire 32 g a0_o [31:0] $end
   $var wire  4 P alu_control [3:0] $end
   $var wire 32 _ alu_out [31:0] $end
   $var wire  1 G alu_src $end
   $var wire  1 I byte_address $end
   $var wire  1 d clk_i $end
   $var wire 32 M imm_ext [31:0] $end
   $var wire  3 O imm_src [2:0] $end
   $var wire 32 J instr [31:0] $end
   $var wire  1 F mem_write $end
   $var wire 32 L pc_plus_4 [31:0] $end
   $var wire 32 K pc_var [31:0] $end
   $var wire  1 H reg_write $end
   $var wire  2 N result_src [1:0] $end
   $var wire  1 e rst_i $end
   $var wire  1 f trigger_i $end
   $var wire  1 ^ zero $end
   $scope module controlUnit_top $end
    $var wire  1 E JALR_instr_o $end
    $var wire  1 h JB_instr_o $end
    $var wire  4 P alu_control_o [3:0] $end
    $var wire  2 T alu_op [1:0] $end
    $var wire  1 G alu_src_o $end
    $var wire  1 U branch $end
    $var wire  1 I byte_address_o $end
    $var wire  3 R funct3_i [2:0] $end
    $var wire  1 S funct7_5_i $end
    $var wire  3 O imm_src_o [2:0] $end
    $var wire  1 V jmp $end
    $var wire  1 F mem_write_o $end
    $var wire  7 Q op_i [6:0] $end
    $var wire  1 H reg_write_o $end
    $var wire  2 N result_src_o [1:0] $end
    $var wire  1 ^ zero_i $end
    $scope module aluDecoder $end
     $var wire  4 P alu_control_o [3:0] $end
     $var wire  2 T alu_op_i [1:0] $end
     $var wire  1 I byte_address_o $end
     $var wire  3 R funct3_i [2:0] $end
     $var wire  1 S funct7_b5_i $end
     $var wire  1 W op_5_i $end
     $var wire  1 X rTypeSub $end
    $upscope $end
    $scope module mainDecoder $end
     $var wire  1 E JALR_o $end
     $var wire  2 T alu_op_o [1:0] $end
     $var wire  1 G alu_src_o $end
     $var wire  1 U branch_o $end
     $var wire  3 O imm_src_o [2:0] $end
     $var wire  1 V jump_o $end
     $var wire  1 F mem_write_o $end
     $var wire  7 Q op_i [6:0] $end
     $var wire  1 H reg_write_o $end
     $var wire  2 N result_src_o [1:0] $end
    $upscope $end
   $upscope $end
   $scope module datapath $end
    $var wire 32 m BYTE_WIDTH [31:0] $end
    $var wire 32 k DATA_WIDTH [31:0] $end
    $var wire 32 l REG_ADDR_LENGTH [31:0] $end
    $var wire 32 g a0_o [31:0] $end
    $var wire  4 P alu_control_i [3:0] $end
    $var wire 32 _ alu_out_o [31:0] $end
    $var wire  1 G alu_src_i $end
    $var wire  1 d clk_i $end
    $var wire  1 I data_mem_byte_op_i $end
    $var wire 32 i data_mem_rd [31:0] $end
    $var wire  1 F data_mem_we_i $end
    $var wire  1 ^ eq_o $end
    $var wire 32 M imm_ext_i [31:0] $end
    $var wire 32 L pc_next_i [31:0] $end
    $var wire  5 Y reg_addr1_i [4:0] $end
    $var wire  5 Z reg_addr2_i [4:0] $end
    $var wire  5 [ reg_addr3_i [4:0] $end
    $var wire 32 ` reg_rd1 [31:0] $end
    $var wire 32 a reg_rd2 [31:0] $end
    $var wire 32 j reg_wd [31:0] $end
    $var wire  1 H reg_we_i $end
    $var wire  2 N result_src_i [1:0] $end
    $var wire  1 f trigger_i $end
    $scope module datapath_alu $end
     $var wire 32 k DATA_WIDTH [31:0] $end
     $var wire  4 P alu_control_i [3:0] $end
     $var wire 32 _ alu_result_o [31:0] $end
     $var wire  1 ^ eq_o $end
     $var wire 32 ` src1_i [31:0] $end
     $var wire 32 b src2_i [31:0] $end
    $upscope $end
    $scope module datapath_data_memory $end
     $var wire 32 m BYTE_WIDTH [31:0] $end
     $var wire 32 k DATA_WIDTH [31:0] $end
     $var wire 17 o END_ADDRESS [16:0] $end
     $var wire 32 n START_ADDRESS [31:0] $end
     $var wire 32 c addr [31:0] $end
     $var wire 32 _ addr_i [31:0] $end
     $var wire  1 I byte_op_i $end
     $var wire  1 d clk_i $end
     $var wire 32 i rd_o [31:0] $end
     $var wire 32 a wd_i [31:0] $end
     $var wire  1 F we_i $end
     $scope module unnamedblk1 $end
      $var wire 32 # i [31:0] $end
     $upscope $end
    $upscope $end
    $scope module datapath_register_file $end
     $var wire 32 l ADDRESS_WIDTH [31:0] $end
     $var wire 32 k DATA_WIDTH [31:0] $end
     $var wire 32 g a0_o [31:0] $end
     $var wire  5 Y addr1_i [4:0] $end
     $var wire  5 Z addr2_i [4:0] $end
     $var wire  5 [ addr3_i [4:0] $end
     $var wire 32 j addr3_wd_i [31:0] $end
     $var wire  1 H addr3_we_i $end
     $var wire  1 d clk_i $end
     $var wire 32 ` rd1_o [31:0] $end
     $var wire 32 a rd2_o [31:0] $end
     $var wire 32 % rf[0] [31:0] $end
     $var wire 32 / rf[10] [31:0] $end
     $var wire 32 0 rf[11] [31:0] $end
     $var wire 32 1 rf[12] [31:0] $end
     $var wire 32 2 rf[13] [31:0] $end
     $var wire 32 3 rf[14] [31:0] $end
     $var wire 32 4 rf[15] [31:0] $end
     $var wire 32 5 rf[16] [31:0] $end
     $var wire 32 6 rf[17] [31:0] $end
     $var wire 32 7 rf[18] [31:0] $end
     $var wire 32 8 rf[19] [31:0] $end
     $var wire 32 & rf[1] [31:0] $end
     $var wire 32 9 rf[20] [31:0] $end
     $var wire 32 : rf[21] [31:0] $end
     $var wire 32 ; rf[22] [31:0] $end
     $var wire 32 < rf[23] [31:0] $end
     $var wire 32 = rf[24] [31:0] $end
     $var wire 32 > rf[25] [31:0] $end
     $var wire 32 ? rf[26] [31:0] $end
     $var wire 32 @ rf[27] [31:0] $end
     $var wire 32 A rf[28] [31:0] $end
     $var wire 32 B rf[29] [31:0] $end
     $var wire 32 ' rf[2] [31:0] $end
     $var wire 32 C rf[30] [31:0] $end
     $var wire 32 D rf[31] [31:0] $end
     $var wire 32 ( rf[3] [31:0] $end
     $var wire 32 ) rf[4] [31:0] $end
     $var wire 32 * rf[5] [31:0] $end
     $var wire 32 + rf[6] [31:0] $end
     $var wire 32 , rf[7] [31:0] $end
     $var wire 32 - rf[8] [31:0] $end
     $var wire 32 . rf[9] [31:0] $end
     $var wire  1 f trigger_i $end
     $scope module unnamedblk1 $end
      $var wire 32 $ i [31:0] $end
     $upscope $end
    $upscope $end
   $upscope $end
   $scope module extend_unit $end
    $var wire 32 k DATA_WIDTH [31:0] $end
    $var wire 32 M imm_ext_o [31:0] $end
    $var wire  3 O imm_src_i [2:0] $end
    $var wire 25 \ instr_i [31:7] $end
   $upscope $end
   $scope module instruction_memory $end
    $var wire 32 m BYTE_SIZE [31:0] $end
    $var wire 32 k DATA_WIDTH [31:0] $end
    $var wire 32 p FIRST_INSTR_ADDR [31:0] $end
    $var wire 32 q LAST_INSTR_ADDR [31:0] $end
    $var wire 32 ] addr [31:0] $end
    $var wire 32 K addr_i [31:0] $end
    $var wire 32 J instr_o [31:0] $end
   $upscope $end
   $scope module program_counter $end
    $var wire 32 k PC_WIDTH [31:0] $end
    $var wire  1 d clk_i $end
    $var wire 32 M imm_ext_i [31:0] $end
    $var wire  1 E jalr_instr_i $end
    $var wire 32 _ jta_jalr_i [31:0] $end
    $var wire  1 h jump_taken_i $end
    $var wire 32 K pc_next [31:0] $end
    $var wire 32 K pc_o [31:0] $end
    $var wire 32 L pc_plus4_o [31:0] $end
    $var wire  1 e rst_i $end
   $upscope $end
  $upscope $end
 $upscope $end
$enddefinitions $end


#0
b00000000000000000000000000000000 #
b00000000000000000000000000000000 $
b00000000000000000000000000000000 %
b00000000000000000000000000000000 &
b00000000000000000000000000000000 '
b00000000000000000000000000000000 (
b00000000000000000000000000000000 )
b00000000000000000000000000000000 *
b00000000000000000000000000000000 +
b00000000000000000000000000000000 ,
b00000000000000000000000000000000 -
b00000000000000000000000000000000 .
b00000000000000000000000000000000 /
b00000000000000000000000000000000 0
b00000000000000000000000000000000 1
b00000000000000000000000000000000 2
b00000000000000000000000000000000 3
b00000000000000000000000000000000 4
b00000000000000000000000000000000 5
b00000000000000000000000000000000 6
b00000000000000000000000000000000 7
b00000000000000000000000000000000 8
b00000000000000000000000000000000 9
b00000000000000000000000000000000 :
b00000000000000000000000000000000 ;
b00000000000000000000000000000000 <
b00000000000000000000000000000000 =
b00000000000000000000000000000000 >
b00000000000000000000000000000000 ?
b00000000000000000000000000000000 @
b00000000000000000000000000000000 A
b00000000000000000000000000000000 B
b00000000000000000000000000000000 C
b00000000000000000000000000000000 D
0E
0F
0G
0H
0I
b00000000000000000000000000000000 J
b00000000000000000000000000000000 K
b00000000000000000000000000000100 L
b00000000000000000000000000000000 M
b00 N
b000 O
b0000 P
b0000000 Q
b000 R
0S
b00 T
0U
0V
0W
0X
b00000 Y
b00000 Z
b00000 [
b0000000000000000000000000 \
b00000000000000000000000000000000 ]
1^
b00000000000000000000000000000000 _
b00000000000000000000000000000000 `
b00000000000000000000000000000000 a
b00000000000000000000000000000000 b
b00000000000000000000000000000000 c
1d
1e
0f
b00000000000000000000000000000000 g
0h
b00000000000000000000000000000000 i
b00000000000000000000000000000000 j
b00000000000000000000000000100000 k
b00000000000000000000000000000101 l
b00000000000000000000000000001000 m
b00000000000000010000000000000000 n
b11111111111111111 o
b10111111110000000000000000000000 p
b10111111110000000000111111111111 q
#1
b00000000000000010000000000000000 #
b00000000000000000000000000100000 $
1G
1H
b00001111111100000000010000010011 J
b10111111110000000000000000000000 K
b10111111110000000000000000000100 L
b00000000000000000000000011111111 M
b0010011 Q
b10 T
b11111 Z
b01000 [
b0000111111110000000001000 \
b10111111110000000000000000000000 ]
0^
b00000000000000000000000011111111 _
b00000000000000000000000011111111 b
b00000000000000000000000011111100 c
0d
b00000000000000000000000011111111 j
#2
1d
#3
b00000000000000000000000011111111 -
0d
#4
1d
#5
0d
#6
1d
#7
0d
#8
1d
0e
#9
0d
#10
b00000000111100000000010010010011 J
b10111111110000000000000000000100 K
b10111111110000000000000000001000 L
b00000000000000000000000000001111 M
b01111 Z
b01001 [
b0000000011110000000001001 \
b10111111110000000000000000000100 ]
b00000000000000000000000000001111 _
b00000000000000000000000000001111 b
b00000000000000000000000000001100 c
1d
b00000000000000000000000000001111 j
#11
b00000000000000000000000000001111 .
0d
#12
b00000000000100000000100100010011 J
b10111111110000000000000000001000 K
b10111111110000000000000000001100 L
b00000000000000000000000000000001 M
b00001 Z
b10010 [
b0000000000010000000010010 \
b10111111110000000000000000001000 ]
b00000000000000000000000000000001 _
b00000000000000000000000000000001 b
b00000000000000000000000000000000 c
1d
b00000000000000000000000000000001 j
#13
b00000000000000000000000000000001 7
0d
#14
0G
b00000000000000000000010100110011 J
b10111111110000000000000000001100 K
b10111111110000000000000000010000 L
b00000000000000000000000000000000 M
b0110011 Q
1W
b00000 Z
b01010 [
b0000000000000000000001010 \
b10111111110000000000000000001100 ]
1^
b00000000000000000000000000000000 _
b00000000000000000000000000000000 b
1d
1f
b00000000000000000000000000000000 j
#15
b00000000000000000000000000000001 A
0d
#16
1I
b00000001010000000000000011101111 J
b10111111110000000000000000010000 K
b10111111110000000000000000010100 L
b00000000000000000000000000010100 M
b10 N
b011 O
b1101111 Q
b00 T
1V
b10100 Z
b00001 [
b0000000101000000000000001 \
b10111111110000000000000000010000 ]
1d
1h
b10111111110000000000000000010100 j
#17
b10111111110000000000000000010100 &
0d
#18
1G
0I
b00000000000101011000010110010011 J
b10111111110000000000000000100100 K
b10111111110000000000000000101000 L
b00000000000000000000000000000001 M
b00 N
b000 O
b0010011 Q
b10 T
0V
0W
b01011 Y
b00001 Z
b01011 [
b0000000000010101100001011 \
b10111111110000000000000000100100 ]
0^
b00000000000000000000000000000001 _
b10111111110000000000000000010100 a
b00000000000000000000000000000001 b
1d
0h
b00000000000000000000000000000001 j
#19
b00000000000000000000000000000001 0
1^
b00000000000000000000000000000010 _
b00000000000000000000000000000001 `
0d
b00000000000000000000000000000010 j
#20
0G
0H
b11111110100101011001111011100011 J
b10111111110000000000000000101000 K
b10111111110000000000000000101100 L
b11111111111111111111111111111100 M
b010 O
b1000 P
b1100011 Q
b001 R
1S
b01 T
1U
1W
1X
b01001 Z
b11101 [
b1111111010010101100111101 \
b10111111110000000000000000101000 ]
0^
b11111111111111111111111111110010 _
b00000000000000000000000000001111 a
b00000000000000000000000000001111 b
b11111111111111111111111111110000 c
1d
1h
b11011000110101111101011011010101 i
b11111111111111111111111111110010 j
#21
0d
#22
1G
1H
b00000000000101011000010110010011 J
b10111111110000000000000000100100 K
b10111111110000000000000000101000 L
b00000000000000000000000000000001 M
b000 O
b0000 P
b0010011 Q
b000 R
0S
b10 T
0U
0W
0X
b00001 Z
b01011 [
b0000000000010101100001011 \
b10111111110000000000000000100100 ]
1^
b00000000000000000000000000000010 _
b10111111110000000000000000010100 a
b00000000000000000000000000000001 b
b00000000000000000000000000000000 c
1d
0h
b00000000000000000000000000000000 i
b00000000000000000000000000000010 j
#23
b00000000000000000000000000000010 0
0^
b00000000000000000000000000000011 _
b00000000000000000000000000000010 `
0d
b00000000000000000000000000000011 j
#24
0G
0H
b11111110100101011001111011100011 J
b10111111110000000000000000101000 K
b10111111110000000000000000101100 L
b11111111111111111111111111111100 M
b010 O
b1000 P
b1100011 Q
b001 R
1S
b01 T
1U
1W
1X
b01001 Z
b11101 [
b1111111010010101100111101 \
b10111111110000000000000000101000 ]
b11111111111111111111111111110011 _
b00000000000000000000000000001111 a
b00000000000000000000000000001111 b
b11111111111111111111111111110000 c
1d
1h
b11011000110101111101011011010101 i
b11111111111111111111111111110011 j
#25
0d
#26
1G
1H
b00000000000101011000010110010011 J
b10111111110000000000000000100100 K
b10111111110000000000000000101000 L
b00000000000000000000000000000001 M
b000 O
b0000 P
b0010011 Q
b000 R
0S
b10 T
0U
0W
0X
b00001 Z
b01011 [
b0000000000010101100001011 \
b10111111110000000000000000100100 ]
b00000000000000000000000000000011 _
b10111111110000000000000000010100 a
b00000000000000000000000000000001 b
b00000000000000000000000000000000 c
1d
0h
b00000000000000000000000000000000 i
b00000000000000000000000000000011 j
#27
b00000000000000000000000000000011 0
b00000000000000000000000000000100 _
b00000000000000000000000000000011 `
b00000000000000000000000000000100 c
0d
b00000000000000000000000000000100 j
#28
0G
0H
b11111110100101011001111011100011 J
b10111111110000000000000000101000 K
b10111111110000000000000000101100 L
b11111111111111111111111111111100 M
b010 O
b1000 P
b1100011 Q
b001 R
1S
b01 T
1U
1W
1X
b01001 Z
b11101 [
b1111111010010101100111101 \
b10111111110000000000000000101000 ]
b11111111111111111111111111110100 _
b00000000000000000000000000001111 a
b00000000000000000000000000001111 b
b11111111111111111111111111110100 c
1d
1h
b11011101110111001101101111011001 i
b11111111111111111111111111110100 j
#29
0d
#30
1G
1H
b00000000000101011000010110010011 J
b10111111110000000000000000100100 K
b10111111110000000000000000101000 L
b00000000000000000000000000000001 M
b000 O
b0000 P
b0010011 Q
b000 R
0S
b10 T
0U
0W
0X
b00001 Z
b01011 [
b0000000000010101100001011 \
b10111111110000000000000000100100 ]
b00000000000000000000000000000100 _
b10111111110000000000000000010100 a
b00000000000000000000000000000001 b
b00000000000000000000000000000100 c
1d
0h
b00000000000000000000000000000000 i
b00000000000000000000000000000100 j
#31
b00000000000000000000000000000100 0
b00000000000000000000000000000101 _
b00000000000000000000000000000100 `
0d
b00000000000000000000000000000101 j
#32
0G
0H
b11111110100101011001111011100011 J
b10111111110000000000000000101000 K
b10111111110000000000000000101100 L
b11111111111111111111111111111100 M
b010 O
b1000 P
b1100011 Q
b001 R
1S
b01 T
1U
1W
1X
b01001 Z
b11101 [
b1111111010010101100111101 \
b10111111110000000000000000101000 ]
b11111111111111111111111111110101 _
b00000000000000000000000000001111 a
b00000000000000000000000000001111 b
b11111111111111111111111111110100 c
1d
1h
b11011101110111001101101111011001 i
b11111111111111111111111111110101 j
#33
0d
#34
1G
1H
b00000000000101011000010110010011 J
b10111111110000000000000000100100 K
b10111111110000000000000000101000 L
b00000000000000000000000000000001 M
b000 O
b0000 P
b0010011 Q
b000 R
0S
b10 T
0U
0W
0X
b00001 Z
b01011 [
b0000000000010101100001011 \
b10111111110000000000000000100100 ]
b00000000000000000000000000000101 _
b10111111110000000000000000010100 a
b00000000000000000000000000000001 b
b00000000000000000000000000000100 c
1d
0h
b00000000000000000000000000000000 i
b00000000000000000000000000000101 j
#35
b00000000000000000000000000000101 0
b00000000000000000000000000000110 _
b00000000000000000000000000000101 `
0d
b00000000000000000000000000000110 j
#36
0G
0H
b11111110100101011001111011100011 J
b10111111110000000000000000101000 K
b10111111110000000000000000101100 L
b11111111111111111111111111111100 M
b010 O
b1000 P
b1100011 Q
b001 R
1S
b01 T
1U
1W
1X
b01001 Z
b11101 [
b1111111010010101100111101 \
b10111111110000000000000000101000 ]
b11111111111111111111111111110110 _
b00000000000000000000000000001111 a
b00000000000000000000000000001111 b
b11111111111111111111111111110100 c
1d
1h
b11011101110111001101101111011001 i
b11111111111111111111111111110110 j
#37
0d
#38
1G
1H
b00000000000101011000010110010011 J
b10111111110000000000000000100100 K
b10111111110000000000000000101000 L
b00000000000000000000000000000001 M
b000 O
b0000 P
b0010011 Q
b000 R
0S
b10 T
0U
0W
0X
b00001 Z
b01011 [
b0000000000010101100001011 \
b10111111110000000000000000100100 ]
b00000000000000000000000000000110 _
b10111111110000000000000000010100 a
b00000000000000000000000000000001 b
b00000000000000000000000000000100 c
1d
0h
b00000000000000000000000000000000 i
b00000000000000000000000000000110 j
#39
b00000000000000000000000000000110 0
b00000000000000000000000000000111 _
b00000000000000000000000000000110 `
0d
b00000000000000000000000000000111 j
#40
0G
0H
b11111110100101011001111011100011 J
b10111111110000000000000000101000 K
b10111111110000000000000000101100 L
b11111111111111111111111111111100 M
b010 O
b1000 P
b1100011 Q
b001 R
1S
b01 T
1U
1W
1X
b01001 Z
b11101 [
b1111111010010101100111101 \
b10111111110000000000000000101000 ]
b11111111111111111111111111110111 _
b00000000000000000000000000001111 a
b00000000000000000000000000001111 b
b11111111111111111111111111110100 c
1d
1h
b11011101110111001101101111011001 i
b11111111111111111111111111110111 j
#41
0d
#42
1G
1H
b00000000000101011000010110010011 J
b10111111110000000000000000100100 K
b10111111110000000000000000101000 L
b00000000000000000000000000000001 M
b000 O
b0000 P
b0010011 Q
b000 R
0S
b10 T
0U
0W
0X
b00001 Z
b01011 [
b0000000000010101100001011 \
b10111111110000000000000000100100 ]
b00000000000000000000000000000111 _
b10111111110000000000000000010100 a
b00000000000000000000000000000001 b
b00000000000000000000000000000100 c
1d
0h
b00000000000000000000000000000000 i
b00000000000000000000000000000111 j
#43
b00000000000000000000000000000111 0
b00000000000000000000000000001000 _
b00000000000000000000000000000111 `
b00000000000000000000000000001000 c
0d
b00000000000000000000000000001000 j
#44
0G
0H
b11111110100101011001111011100011 J
b10111111110000000000000000101000 K
b10111111110000000000000000101100 L
b11111111111111111111111111111100 M
b010 O
b1000 P
b1100011 Q
b001 R
1S
b01 T
1U
1W
1X
b01001 Z
b11101 [
b1111111010010101100111101 \
b10111111110000000000000000101000 ]
b11111111111111111111111111111000 _
b00000000000000000000000000001111 a
b00000000000000000000000000001111 b
b11111111111111111111111111111000 c
1d
1h
b11100010111000011101111111011110 i
b11111111111111111111111111111000 j
#45
0d
#46
1G
1H
b00000000000101011000010110010011 J
b10111111110000000000000000100100 K
b10111111110000000000000000101000 L
b00000000000000000000000000000001 M
b000 O
b0000 P
b0010011 Q
b000 R
0S
b10 T
0U
0W
0X
b00001 Z
b01011 [
b0000000000010101100001011 \
b10111111110000000000000000100100 ]
b00000000000000000000000000001000 _
b10111111110000000000000000010100 a
b00000000000000000000000000000001 b
b00000000000000000000000000001000 c
1d
0h
b00000000000000000000000000000000 i
b00000000000000000000000000001000 j
#47
b00000000000000000000000000001000 0
b00000000000000000000000000001001 _
b00000000000000000000000000001000 `
0d
b00000000000000000000000000001001 j
#48
0G
0H
b11111110100101011001111011100011 J
b10111111110000000000000000101000 K
b10111111110000000000000000101100 L
b11111111111111111111111111111100 M
b010 O
b1000 P
b1100011 Q
b001 R
1S
b01 T
1U
1W
1X
b01001 Z
b11101 [
b1111111010010101100111101 \
b10111111110000000000000000101000 ]
b11111111111111111111111111111001 _
b00000000000000000000000000001111 a
b00000000000000000000000000001111 b
b11111111111111111111111111111000 c
1d
1h
b11100010111000011101111111011110 i
b11111111111111111111111111111001 j
#49
0d
#50
1G
1H
b00000000000101011000010110010011 J
b10111111110000000000000000100100 K
b10111111110000000000000000101000 L
b00000000000000000000000000000001 M
b000 O
b0000 P
b0010011 Q
b000 R
0S
b10 T
0U
0W
0X
b00001 Z
b01011 [
b0000000000010101100001011 \
b10111111110000000000000000100100 ]
b00000000000000000000000000001001 _
b10111111110000000000000000010100 a
b00000000000000000000000000000001 b
b00000000000000000000000000001000 c
1d
0h
b00000000000000000000000000000000 i
b00000000000000000000000000001001 j
#51
b00000000000000000000000000001001 0
b00000000000000000000000000001010 _
b00000000000000000000000000001001 `
0d
b00000000000000000000000000001010 j
#52
0G
0H
b11111110100101011001111011100011 J
b10111111110000000000000000101000 K
b10111111110000000000000000101100 L
b11111111111111111111111111111100 M
b010 O
b1000 P
b1100011 Q
b001 R
1S
b01 T
1U
1W
1X
b01001 Z
b11101 [
b1111111010010101100111101 \
b10111111110000000000000000101000 ]
b11111111111111111111111111111010 _
b00000000000000000000000000001111 a
b00000000000000000000000000001111 b
b11111111111111111111111111111000 c
1d
1h
b11100010111000011101111111011110 i
b11111111111111111111111111111010 j
#53
0d
#54
1G
1H
b00000000000101011000010110010011 J
b10111111110000000000000000100100 K
b10111111110000000000000000101000 L
b00000000000000000000000000000001 M
b000 O
b0000 P
b0010011 Q
b000 R
0S
b10 T
0U
0W
0X
b00001 Z
b01011 [
b0000000000010101100001011 \
b10111111110000000000000000100100 ]
b00000000000000000000000000001010 _
b10111111110000000000000000010100 a
b00000000000000000000000000000001 b
b00000000000000000000000000001000 c
1d
0h
b00000000000000000000000000000000 i
b00000000000000000000000000001010 j
#55
b00000000000000000000000000001010 0
b00000000000000000000000000001011 _
b00000000000000000000000000001010 `
0d
b00000000000000000000000000001011 j
#56
0G
0H
b11111110100101011001111011100011 J
b10111111110000000000000000101000 K
b10111111110000000000000000101100 L
b11111111111111111111111111111100 M
b010 O
b1000 P
b1100011 Q
b001 R
1S
b01 T
1U
1W
1X
b01001 Z
b11101 [
b1111111010010101100111101 \
b10111111110000000000000000101000 ]
b11111111111111111111111111111011 _
b00000000000000000000000000001111 a
b00000000000000000000000000001111 b
b11111111111111111111111111111000 c
1d
1h
b11100010111000011101111111011110 i
b11111111111111111111111111111011 j
#57
0d
#58
1G
1H
b00000000000101011000010110010011 J
b10111111110000000000000000100100 K
b10111111110000000000000000101000 L
b00000000000000000000000000000001 M
b000 O
b0000 P
b0010011 Q
b000 R
0S
b10 T
0U
0W
0X
b00001 Z
b01011 [
b0000000000010101100001011 \
b10111111110000000000000000100100 ]
b00000000000000000000000000001011 _
b10111111110000000000000000010100 a
b00000000000000000000000000000001 b
b00000000000000000000000000001000 c
1d
0h
b00000000000000000000000000000000 i
b00000000000000000000000000001011 j
#59
b00000000000000000000000000001011 0
b00000000000000000000000000001100 _
b00000000000000000000000000001011 `
b00000000000000000000000000001100 c
0d
b00000000000000000000000000001100 j
#60
0G
0H
b11111110100101011001111011100011 J
b10111111110000000000000000101000 K
b10111111110000000000000000101100 L
b11111111111111111111111111111100 M
b010 O
b1000 P
b1100011 Q
b001 R
1S
b01 T
1U
1W
1X
b01001 Z
b11101 [
b1111111010010101100111101 \
b10111111110000000000000000101000 ]
b11111111111111111111111111111100 _
b00000000000000000000000000001111 a
b00000000000000000000000000001111 b
b11111111111111111111111111111100 c
1d
1h
b11100110111001011110010011100011 i
b11111111111111111111111111111100 j
#61
0d
#62
1G
1H
b00000000000101011000010110010011 J
b10111111110000000000000000100100 K
b10111111110000000000000000101000 L
b00000000000000000000000000000001 M
b000 O
b0000 P
b0010011 Q
b000 R
0S
b10 T
0U
0W
0X
b00001 Z
b01011 [
b0000000000010101100001011 \
b10111111110000000000000000100100 ]
b00000000000000000000000000001100 _
b10111111110000000000000000010100 a
b00000000000000000000000000000001 b
b00000000000000000000000000001100 c
1d
0h
b00000000000000000000000000000000 i
b00000000000000000000000000001100 j
#63
b00000000000000000000000000001100 0
b00000000000000000000000000001101 _
b00000000000000000000000000001100 `
0d
b00000000000000000000000000001101 j
#64
0G
0H
b11111110100101011001111011100011 J
b10111111110000000000000000101000 K
b10111111110000000000000000101100 L
b11111111111111111111111111111100 M
b010 O
b1000 P
b1100011 Q
b001 R
1S
b01 T
1U
1W
1X
b01001 Z
b11101 [
b1111111010010101100111101 \
b10111111110000000000000000101000 ]
b11111111111111111111111111111101 _
b00000000000000000000000000001111 a
b00000000000000000000000000001111 b
b11111111111111111111111111111100 c
1d
1h
b11100110111001011110010011100011 i
b11111111111111111111111111111101 j
#65
0d
#66
1G
1H
b00000000000101011000010110010011 J
b10111111110000000000000000100100 K
b10111111110000000000000000101000 L
b00000000000000000000000000000001 M
b000 O
b0000 P
b0010011 Q
b000 R
0S
b10 T
0U
0W
0X
b00001 Z
b01011 [
b0000000000010101100001011 \
b10111111110000000000000000100100 ]
b00000000000000000000000000001101 _
b10111111110000000000000000010100 a
b00000000000000000000000000000001 b
b00000000000000000000000000001100 c
1d
0h
b00000000000000000000000000000000 i
b00000000000000000000000000001101 j
#67
b00000000000000000000000000001101 0
b00000000000000000000000000001110 _
b00000000000000000000000000001101 `
0d
b00000000000000000000000000001110 j
#68
0G
0H
b11111110100101011001111011100011 J
b10111111110000000000000000101000 K
b10111111110000000000000000101100 L
b11111111111111111111111111111100 M
b010 O
b1000 P
b1100011 Q
b001 R
1S
b01 T
1U
1W
1X
b01001 Z
b11101 [
b1111111010010101100111101 \
b10111111110000000000000000101000 ]
b11111111111111111111111111111110 _
b00000000000000000000000000001111 a
b00000000000000000000000000001111 b
b11111111111111111111111111111100 c
1d
1h
b11100110111001011110010011100011 i
b11111111111111111111111111111110 j
#69
0d
#70
1G
1H
b00000000000101011000010110010011 J
b10111111110000000000000000100100 K
b10111111110000000000000000101000 L
b00000000000000000000000000000001 M
b000 O
b0000 P
b0010011 Q
b000 R
0S
b10 T
0U
0W
0X
b00001 Z
b01011 [
b0000000000010101100001011 \
b10111111110000000000000000100100 ]
b00000000000000000000000000001110 _
b10111111110000000000000000010100 a
b00000000000000000000000000000001 b
b00000000000000000000000000001100 c
1d
0h
b00000000000000000000000000000000 i
b00000000000000000000000000001110 j
#71
b00000000000000000000000000001110 0
b00000000000000000000000000001111 _
b00000000000000000000000000001110 `
0d
b00000000000000000000000000001111 j
#72
0G
0H
b11111110100101011001111011100011 J
b10111111110000000000000000101000 K
b10111111110000000000000000101100 L
b11111111111111111111111111111100 M
b010 O
b1000 P
b1100011 Q
b001 R
1S
b01 T
1U
1W
1X
b01001 Z
b11101 [
b1111111010010101100111101 \
b10111111110000000000000000101000 ]
b11111111111111111111111111111111 _
b00000000000000000000000000001111 a
b00000000000000000000000000001111 b
b11111111111111111111111111111100 c
1d
1h
b11100110111001011110010011100011 i
b11111111111111111111111111111111 j
#73
0d
#74
1G
1H
b00000000000101011000010110010011 J
b10111111110000000000000000100100 K
b10111111110000000000000000101000 L
b00000000000000000000000000000001 M
b000 O
b0000 P
b0010011 Q
b000 R
0S
b10 T
0U
0W
0X
b00001 Z
b01011 [
b0000000000010101100001011 \
b10111111110000000000000000100100 ]
b00000000000000000000000000001111 _
b10111111110000000000000000010100 a
b00000000000000000000000000000001 b
b00000000000000000000000000001100 c
1d
0h
b00000000000000000000000000000000 i
b00000000000000000000000000001111 j
#75
b00000000000000000000000000001111 0
b00000000000000000000000000010000 _
b00000000000000000000000000001111 `
b00000000000000000000000000010000 c
0d
b00000000000000000000000000010000 j
#76
0G
0H
b11111110100101011001111011100011 J
b10111111110000000000000000101000 K
b10111111110000000000000000101100 L
b11111111111111111111111111111100 M
b010 O
b1000 P
b1100011 Q
b001 R
1S
b01 T
1U
1W
1X
b01001 Z
b11101 [
b1111111010010101100111101 \
b10111111110000000000000000101000 ]
1^
b00000000000000000000000000000000 _
b00000000000000000000000000001111 a
b00000000000000000000000000001111 b
b00000000000000000000000000000000 c
1d
b00000000000000000000000000000000 j
#77
0d
#78
1G
1H
b00000000000000000000010110010011 J
b10111111110000000000000000101100 K
b10111111110000000000000000110000 L
b00000000000000000000000000000000 M
b000 O
b0000 P
b0010011 Q
b000 R
0S
b10 T
0U
0W
0X
b00000 Y
b00000 Z
b01011 [
b0000000000000000000001011 \
b10111111110000000000000000101100 ]
b00000000000000000000000000000000 `
b00000000000000000000000000000000 a
b00000000000000000000000000000000 b
1d
#79
b00000000000000000000000000000000 0
0d
#80
1E
b00000000000000001000000001100111 J
b10111111110000000000000000110000 K
b10111111110000000000000000110100 L
b10 N
b1100111 Q
1W
b00001 Y
b00000 [
b0000000000000000100000000 \
b10111111110000000000000000110000 ]
0^
b10111111110000000000000000010100 _
b10111111110000000000000000010100 `
b10111111110000000000000000010100 c
1d
b10111111110000000000000000110100 j
#81
0d
#82
0E
b00000000000101010001010100010011 J
b10111111110000000000000000010100 K
b10111111110000000000000000011000 L
b00000000000000000000000000000001 M
b00 N
b0001 P
b0010011 Q
b001 R
0W
b01010 Y
b00001 Z
b01010 [
b0000000000010101000101010 \
b10111111110000000000000000010100 ]
b00000000000000000000000000000000 _
b00000000000000000000000000000000 `
b10111111110000000000000000010100 a
b00000000000000000000000000000001 b
b00000000000000000000000000000000 c
1d
b00000000000000000000000000000000 j
